[
  {
    "id": "786ce11c-6bf9-4b9d-b2a2-ac439b74c128",
    "data": [
      {
        "text": "be smarter",
        "userDefined": false
      }
    ],
    "isTemplate": false,
    "count": 0,
    "updated": 0
  },
  {
    "id": "0bbfa605-8df8-4535-894d-efa7c09c8e08",
    "data": [
      {
        "text": "get",
        "meta": "@sys.ignore",
        "userDefined": true
      },
      {
        "text": " qualified",
        "userDefined": false
      }
    ],
    "isTemplate": false,
    "count": 0,
    "updated": 0
  },
  {
    "id": "c4165263-c6ac-4e2f-94f3-c5a457613a5f",
    "data": [
      {
        "text": "you should ",
        "userDefined": false
      },
      {
        "text": "study",
        "meta": "@sys.ignore",
        "userDefined": true
      },
      {
        "text": " better",
        "userDefined": false
      }
    ],
    "isTemplate": false,
    "count": 0,
    "updated": 0
  },
  {
    "id": "4bc7f615-794f-4a75-805e-70c7dcc0ed8d",
    "data": [
      {
        "text": "be more clever",
        "userDefined": false
      }
    ],
    "isTemplate": false,
    "count": 0,
    "updated": 0
  },
  {
    "id": "9eea6d83-15d4-45ef-b4a6-f40bc1dcc1a1",
    "data": [
      {
        "text": "study",
        "userDefined": false
      }
    ],
    "isTemplate": false,
    "count": 0,
    "updated": 0
  },
  {
    "id": "976e1634-1bc7-414b-a584-c6b4bc2bc063",
    "data": [
      {
        "text": "be ",
        "userDefined": false
      },
      {
        "text": "smart",
        "meta": "@sys.ignore",
        "userDefined": true
      }
    ],
    "isTemplate": false,
    "count": 0,
    "updated": 0
  },
  {
    "id": "98a6a90e-39e1-42b6-b71c-8a7e8ff838d6",
    "data": [
      {
        "text": "can you get smarter",
        "userDefined": false
      }
    ],
    "isTemplate": false,
    "count": 0,
    "updated": 0
  },
  {
    "id": "c839cee2-0fec-45f9-99a8-0a8310ba228d",
    "data": [
      {
        "text": "be clever",
        "userDefined": false
      }
    ],
    "isTemplate": false,
    "count": 0,
    "updated": 0
  },
  {
    "id": "e36354f1-2bd6-4c9e-8c76-be3cbfb5c3ca",
    "data": [
      {
        "text": "you ",
        "userDefined": false
      },
      {
        "text": "must",
        "meta": "@sys.ignore",
        "userDefined": true
      },
      {
        "text": " learn",
        "userDefined": false
      }
    ],
    "isTemplate": false,
    "count": 0,
    "updated": 0
  }
]