[
  {
    "id": "d013f47b-19bf-4d74-b333-0669e1f85969",
    "data": [
      {
        "text": "tell me some stuff about you",
        "userDefined": false
      }
    ],
    "isTemplate": false,
    "count": 0,
    "updated": 0
  },
  {
    "id": "df593fc1-4377-4cc5-9430-89dfa0ace55b",
    "data": [
      {
        "text": "tell me about you",
        "userDefined": false
      }
    ],
    "isTemplate": false,
    "count": 1,
    "updated": 0
  },
  {
    "id": "bb5566b2-d20d-4fbb-92ff-70e8ec1727fe",
    "data": [
      {
        "text": "say about you",
        "userDefined": false
      }
    ],
    "isTemplate": false,
    "count": 0,
    "updated": 0
  },
  {
    "id": "19ef03af-20f7-4e1f-a199-41d1a07e52de",
    "data": [
      {
        "text": "tell me about your personality",
        "userDefined": false
      }
    ],
    "isTemplate": false,
    "count": 0,
    "updated": 0
  },
  {
    "id": "02a65921-f96d-4f58-b066-1b4f60cc79d1",
    "data": [
      {
        "text": "talk about ",
        "userDefined": false
      },
      {
        "text": "yourself",
        "meta": "@sys.ignore",
        "userDefined": true
      }
    ],
    "isTemplate": false,
    "count": 0,
    "updated": 0
  },
  {
    "id": "1e71b514-85f6-455f-b932-59cc4986d93b",
    "data": [
      {
        "text": "talk some stuff about ",
        "userDefined": false
      },
      {
        "text": "yourself",
        "meta": "@sys.ignore",
        "userDefined": true
      }
    ],
    "isTemplate": false,
    "count": 0,
    "updated": 0
  },
  {
    "id": "5ab249f1-07ca-481a-a8da-538d959fec8e",
    "data": [
      {
        "text": "what are you",
        "userDefined": false
      }
    ],
    "isTemplate": false,
    "count": 0,
    "updated": 0
  },
  {
    "id": "cbff904b-e74d-472e-970a-1fd1e7c0a053",
    "data": [
      {
        "text": "define yourself",
        "userDefined": false
      }
    ],
    "isTemplate": false,
    "count": 1,
    "updated": 0
  },
  {
    "id": "c349c893-ad72-4baa-b560-a8ff42a0f0db",
    "data": [
      {
        "text": "I want to know you better",
        "userDefined": false
      }
    ],
    "isTemplate": false,
    "count": 0,
    "updated": 0
  },
  {
    "id": "3d892b92-a52e-4696-bb9d-dadebfd5c5ef",
    "data": [
      {
        "text": "tell me about yourself",
        "userDefined": false
      }
    ],
    "isTemplate": false,
    "count": 1,
    "updated": 0
  },
  {
    "id": "416bff13-7bdf-47a9-ae3e-a992c56f4716",
    "data": [
      {
        "text": "what is your personality",
        "userDefined": false
      }
    ],
    "isTemplate": false,
    "count": 0,
    "updated": 0
  },
  {
    "id": "e19ede17-10fc-4a6b-b905-25cdd6c081d3",
    "data": [
      {
        "text": "who are you",
        "userDefined": false
      }
    ],
    "isTemplate": false,
    "count": 1,
    "updated": 0
  },
  {
    "id": "04d0ee56-6bb7-462f-99fb-4f345f0aac7f",
    "data": [
      {
        "text": "about yourself",
        "userDefined": false
      }
    ],
    "isTemplate": false,
    "count": 0,
    "updated": 0
  },
  {
    "id": "2749de21-2ea0-43fd-9f84-993f11f57bcd",
    "data": [
      {
        "text": "why ",
        "userDefined": false
      },
      {
        "text": "are",
        "meta": "@sys.ignore",
        "userDefined": true
      },
      {
        "text": " you ",
        "userDefined": false
      },
      {
        "text": "here",
        "meta": "@sys.ignore",
        "userDefined": true
      }
    ],
    "isTemplate": false,
    "count": 0,
    "updated": 0
  },
  {
    "id": "616f7228-5370-431b-a9d4-5a4ded0691ef",
    "data": [
      {
        "text": "all",
        "meta": "@sys.ignore",
        "userDefined": true
      },
      {
        "text": " ",
        "userDefined": false
      },
      {
        "text": "about",
        "meta": "@sys.ignore",
        "userDefined": true
      },
      {
        "text": " you",
        "userDefined": false
      }
    ],
    "isTemplate": false,
    "count": 0,
    "updated": 0
  },
  {
    "id": "1f4192ad-85a2-41bb-a324-3f78690534bc",
    "data": [
      {
        "text": "introduce yourself",
        "userDefined": false
      }
    ],
    "isTemplate": false,
    "count": 0,
    "updated": 0
  },
  {
    "id": "813a3374-ddb0-4a5d-8628-8ec685ab27da",
    "data": [
      {
        "text": "describe yourself",
        "userDefined": false
      }
    ],
    "isTemplate": false,
    "count": 0,
    "updated": 0
  },
  {
    "id": "43e06026-ed48-4033-8fc5-b4d3726c74bb",
    "data": [
      {
        "text": "I want to know more about you",
        "userDefined": false
      }
    ],
    "isTemplate": false,
    "count": 0,
    "updated": 0
  }
]