[
  {
    "id": "a236f951-27ff-4fdf-a70e-b4dbf6f6b7d7",
    "data": [
      {
        "text": "how old ",
        "userDefined": false
      },
      {
        "text": "are",
        "meta": "@sys.ignore",
        "userDefined": false
      },
      {
        "text": " you",
        "userDefined": false
      }
    ],
    "isTemplate": false,
    "count": 0,
    "updated": 0
  },
  {
    "id": "2a2af7a3-ae78-4dea-945e-a9210d2b4eb4",
    "data": [
      {
        "text": "how old is your platform",
        "userDefined": false
      }
    ],
    "isTemplate": false,
    "count": 0,
    "updated": 0
  },
  {
    "id": "bba86900-16f5-4699-987f-0fb41f58b394",
    "data": [
      {
        "text": "what\u0027s your age",
        "userDefined": false
      }
    ],
    "isTemplate": false,
    "count": 0,
    "updated": 0
  },
  {
    "id": "4f21cd81-0b7b-46f2-9b62-8e3160819c1a",
    "data": [
      {
        "text": "age of yours",
        "userDefined": false
      }
    ],
    "isTemplate": false,
    "count": 0,
    "updated": 0
  },
  {
    "id": "6324107d-4b4e-4f43-8818-d8cf061056d7",
    "data": [
      {
        "text": "I\u0027d like to know your age",
        "userDefined": false
      }
    ],
    "isTemplate": false,
    "count": 0,
    "updated": 0
  },
  {
    "id": "4a51d1fd-ef9a-4421-97d9-9495041255b5",
    "data": [
      {
        "text": "tell me your age",
        "userDefined": false
      }
    ],
    "isTemplate": false,
    "count": 0,
    "updated": 0
  },
  {
    "id": "9d87246b-eac6-4bfb-ad3f-1146851a7d75",
    "data": [
      {
        "text": "your",
        "meta": "@sys.ignore",
        "userDefined": false
      },
      {
        "text": " age",
        "userDefined": false
      }
    ],
    "isTemplate": false,
    "count": 0,
    "updated": 0
  },
  {
    "id": "76a8a834-72f0-4a1e-9c6a-2c6f21a2010b",
    "data": [
      {
        "text": "are you ",
        "userDefined": false
      },
      {
        "text": "21",
        "alias": "age",
        "meta": "@sys.number",
        "userDefined": true
      },
      {
        "text": " years old",
        "userDefined": false
      }
    ],
    "isTemplate": false,
    "count": 0,
    "updated": 0
  }
]