[
  {
    "id": "3216f49f-51d0-44b5-ae85-50c15ef0b1c9",
    "data": [
      {
        "text": "can you help me",
        "userDefined": false
      }
    ],
    "isTemplate": false,
    "count": 1,
    "updated": 0
  },
  {
    "id": "84b2ca45-b79b-4c2e-9336-93134509f341",
    "data": [
      {
        "text": "I need you ",
        "userDefined": false
      },
      {
        "text": "right now",
        "meta": "@sys.ignore",
        "userDefined": true
      }
    ],
    "isTemplate": false,
    "count": 0,
    "updated": 0
  },
  {
    "id": "e292dbcb-08fe-4f49-90fb-046746bc748b",
    "data": [
      {
        "text": "I need ",
        "userDefined": false
      },
      {
        "text": "your",
        "meta": "@sys.ignore",
        "userDefined": false
      },
      {
        "text": " help",
        "userDefined": false
      }
    ],
    "isTemplate": false,
    "count": 0,
    "updated": 0
  },
  {
    "id": "2cafc529-9059-405f-b683-d1154bccdf50",
    "data": [
      {
        "text": "assistance",
        "userDefined": false
      }
    ],
    "isTemplate": false,
    "count": 0,
    "updated": 0
  },
  {
    "id": "a7e37a35-62cf-4016-80ba-3dc2bbe027b2",
    "data": [
      {
        "text": "do you want to help me",
        "userDefined": false
      }
    ],
    "isTemplate": false,
    "count": 1,
    "updated": 0
  },
  {
    "id": "6ab505af-dbde-4176-be3e-bf372ea60b24",
    "data": [
      {
        "text": "help me",
        "userDefined": false
      }
    ],
    "isTemplate": false,
    "count": 0,
    "updated": 0
  },
  {
    "id": "e9f5f4a0-41db-4ae4-9d90-ccca807dfefa",
    "data": [
      {
        "text": "I need help",
        "userDefined": false
      }
    ],
    "isTemplate": false,
    "count": 0,
    "updated": 0
  },
  {
    "id": "710a4aec-d175-4d67-90b2-1f30ee9bd491",
    "data": [
      {
        "text": "I want ",
        "userDefined": false
      },
      {
        "text": "your",
        "meta": "@sys.ignore",
        "userDefined": true
      },
      {
        "text": " help",
        "userDefined": false
      }
    ],
    "isTemplate": false,
    "count": 0,
    "updated": 0
  },
  {
    "id": "0b2e51f2-e7ad-48bd-891a-ae3a6fc25d43",
    "data": [
      {
        "text": "can help me",
        "userDefined": false
      }
    ],
    "isTemplate": false,
    "count": 0,
    "updated": 0
  },
  {
    "id": "3002afde-a64c-4530-8ea1-d0d4aec11346",
    "data": [
      {
        "text": "I need you to help me",
        "userDefined": false
      }
    ],
    "isTemplate": false,
    "count": 0,
    "updated": 0
  },
  {
    "id": "ef39448b-1b14-4300-a5b7-792815419864",
    "data": [
      {
        "text": "would you help me",
        "userDefined": false
      }
    ],
    "isTemplate": false,
    "count": 0,
    "updated": 0
  },
  {
    "id": "adbf067b-1835-4856-8995-42c7ab9fbfcb",
    "data": [
      {
        "text": "are",
        "meta": "@sys.ignore",
        "userDefined": true
      },
      {
        "text": " you going to help me",
        "userDefined": false
      }
    ],
    "isTemplate": false,
    "count": 0,
    "updated": 0
  },
  {
    "id": "3c1696ad-4899-48c6-b3f1-f986843acd9f",
    "data": [
      {
        "text": "you help me",
        "userDefined": false
      }
    ],
    "isTemplate": false,
    "count": 2,
    "updated": 0
  },
  {
    "id": "800f15cb-d45b-4585-b2cf-abe985f48509",
    "data": [
      {
        "text": "can u help me",
        "userDefined": false
      }
    ],
    "isTemplate": false,
    "count": 0,
    "updated": 0
  },
  {
    "id": "a6a256b8-9364-4919-97a2-18fca2525f9f",
    "data": [
      {
        "text": "I need a hand",
        "userDefined": false
      }
    ],
    "isTemplate": false,
    "count": 1,
    "updated": 0
  },
  {
    "id": "9a7f9970-ef2a-4cb7-bfba-59059fa19ee1",
    "data": [
      {
        "text": "can you help me out",
        "userDefined": false
      }
    ],
    "isTemplate": false,
    "count": 0,
    "updated": 0
  },
  {
    "id": "bd4c0886-93db-46a9-825d-1508d96f0d6d",
    "data": [
      {
        "text": "can you help me now",
        "userDefined": false
      }
    ],
    "isTemplate": false,
    "count": 0,
    "updated": 0
  },
  {
    "id": "e8c147b4-06dd-4462-bac0-919caa7c173e",
    "data": [
      {
        "text": "will",
        "meta": "@sys.ignore",
        "userDefined": true
      },
      {
        "text": " you help me",
        "userDefined": false
      }
    ],
    "isTemplate": false,
    "count": 0,
    "updated": 0
  },
  {
    "id": "5ba5c5ec-1929-4303-80e0-48b786b70ae1",
    "data": [
      {
        "text": "I need you to do something for me",
        "userDefined": false
      }
    ],
    "isTemplate": false,
    "count": 0,
    "updated": 0
  },
  {
    "id": "299e0010-2710-446b-a1c4-fc9a708e78c5",
    "data": [
      {
        "text": "please help me",
        "userDefined": false
      }
    ],
    "isTemplate": false,
    "count": 0,
    "updated": 0
  },
  {
    "id": "6bb983c3-a81f-496b-9b9a-40904d70d179",
    "data": [
      {
        "text": "sos",
        "userDefined": false
      }
    ],
    "isTemplate": false,
    "count": 0,
    "updated": 0
  },
  {
    "id": "36f7c58e-a230-48f6-8cd8-6b7bf260e21d",
    "data": [
      {
        "text": "can you help me with something",
        "userDefined": false
      }
    ],
    "isTemplate": false,
    "count": 1,
    "updated": 0
  },
  {
    "id": "7b5b3d62-9e52-4ba7-aef2-5bb3edb47892",
    "data": [
      {
        "text": "I need you",
        "userDefined": false
      }
    ],
    "isTemplate": false,
    "count": 0,
    "updated": 0
  },
  {
    "id": "3946c719-0292-455b-87d1-3990fae03aa0",
    "data": [
      {
        "text": "assist me",
        "userDefined": false
      }
    ],
    "isTemplate": false,
    "count": 0,
    "updated": 0
  },
  {
    "id": "1ed361db-8870-4687-a694-55d8f925cdc7",
    "data": [
      {
        "text": "can you help",
        "userDefined": false
      }
    ],
    "isTemplate": false,
    "count": 0,
    "updated": 0
  },
  {
    "id": "49ed5b9b-04fa-4e73-b355-5d2753c9b90e",
    "data": [
      {
        "text": "need help",
        "userDefined": false
      }
    ],
    "isTemplate": false,
    "count": 0,
    "updated": 0
  },
  {
    "id": "780a0da0-13a7-4011-86b4-b050cdd6e9a9",
    "data": [
      {
        "text": "can you help ",
        "userDefined": false
      },
      {
        "text": "us",
        "meta": "@sys.ignore",
        "userDefined": true
      }
    ],
    "isTemplate": false,
    "count": 1,
    "updated": 0
  },
  {
    "id": "c154ee75-ceaa-4033-b984-e8f9716c3b97",
    "data": [
      {
        "text": "I need some help",
        "userDefined": false
      }
    ],
    "isTemplate": false,
    "count": 0,
    "updated": 0
  },
  {
    "id": "051365af-bfeb-4115-91a6-2b73a08dbd1f",
    "data": [
      {
        "text": "do me a favor",
        "userDefined": false
      }
    ],
    "isTemplate": false,
    "count": 0,
    "updated": 0
  },
  {
    "id": "a702599d-a435-46dd-84c4-29d1ca8dafbb",
    "data": [
      {
        "text": "can you assist me",
        "userDefined": false
      }
    ],
    "isTemplate": false,
    "count": 1,
    "updated": 0
  },
  {
    "id": "4c7deecc-eb4a-40e4-9c3c-ca1656cc9ae6",
    "data": [
      {
        "text": "can you do something for me",
        "userDefined": false
      }
    ],
    "isTemplate": false,
    "count": 0,
    "updated": 0
  },
  {
    "id": "d1adb191-c2a1-4fa4-9fe1-cd7f6fbafa24",
    "data": [
      {
        "text": "can you help me with that",
        "userDefined": false
      }
    ],
    "isTemplate": false,
    "count": 0,
    "updated": 0
  },
  {
    "id": "4a5e64d8-a86a-45dc-887c-7dafdde293ad",
    "data": [
      {
        "text": "you can help me",
        "userDefined": false
      }
    ],
    "isTemplate": false,
    "count": 0,
    "updated": 0
  },
  {
    "id": "aa497063-a368-4341-9760-9dc38b11eb49",
    "data": [
      {
        "text": "help me with a problem",
        "userDefined": false
      }
    ],
    "isTemplate": false,
    "count": 1,
    "updated": 0
  },
  {
    "id": "d1e9a588-063c-4a54-92ff-a0e99140602f",
    "data": [
      {
        "text": "need ",
        "userDefined": false
      },
      {
        "text": "your",
        "meta": "@sys.ignore",
        "userDefined": true
      },
      {
        "text": " help",
        "userDefined": false
      }
    ],
    "isTemplate": false,
    "count": 0,
    "updated": 0
  },
  {
    "id": "6fca48b4-e622-4cfd-bbec-e761f707dd7e",
    "data": [
      {
        "text": "assist",
        "userDefined": false
      }
    ],
    "isTemplate": false,
    "count": 0,
    "updated": 0
  },
  {
    "id": "873ea162-efb3-4167-85a4-6fd736860503",
    "data": [
      {
        "text": "do you help me",
        "userDefined": false
      }
    ],
    "isTemplate": false,
    "count": 0,
    "updated": 0
  },
  {
    "id": "42cd4327-fc05-4c8a-96f3-a6632eb93bf4",
    "data": [
      {
        "text": "could you give ",
        "userDefined": false
      },
      {
        "text": "me",
        "meta": "@sys.ignore",
        "userDefined": false
      },
      {
        "text": " a ",
        "userDefined": false
      },
      {
        "text": "hand",
        "meta": "@sys.ignore",
        "userDefined": false
      }
    ],
    "isTemplate": false,
    "count": 2,
    "updated": 0
  },
  {
    "id": "f08b0c93-cd34-404e-a01d-518535fefcd7",
    "data": [
      {
        "text": "help",
        "userDefined": false
      }
    ],
    "isTemplate": false,
    "count": 0,
    "updated": 0
  }
]