[
  {
    "id": "36ca51cf-3ab8-40a4-a9e2-2dfa3ac1c674",
    "data": [
      {
        "text": "I want the answer now",
        "userDefined": false
      }
    ],
    "isTemplate": false,
    "count": 0,
    "updated": 0
  },
  {
    "id": "bd06e712-d084-427d-ad9a-06ff09600472",
    "data": [
      {
        "text": "can you answer my question",
        "userDefined": false
      }
    ],
    "isTemplate": false,
    "count": 0,
    "updated": 0
  },
  {
    "id": "6550da6f-a437-4fec-b445-47277e99f83e",
    "data": [
      {
        "text": "give",
        "meta": "@sys.ignore",
        "userDefined": false
      },
      {
        "text": " me an answer",
        "userDefined": false
      }
    ],
    "isTemplate": false,
    "count": 0,
    "updated": 0
  },
  {
    "id": "2d30a39f-3b10-4553-adf7-53aca420adf8",
    "data": [
      {
        "text": "give",
        "meta": "@sys.ignore",
        "userDefined": false
      },
      {
        "text": " me the answer",
        "userDefined": false
      }
    ],
    "isTemplate": false,
    "count": 0,
    "updated": 0
  },
  {
    "id": "20ffc512-2bb7-448e-8f28-408e25ffd067",
    "data": [
      {
        "text": "answer me",
        "userDefined": false
      }
    ],
    "isTemplate": false,
    "count": 0,
    "updated": 0
  },
  {
    "id": "046a9540-8dc3-41a0-8ef9-4d01616e972f",
    "data": [
      {
        "text": "can you answer a question for me",
        "userDefined": false
      }
    ],
    "isTemplate": false,
    "count": 0,
    "updated": 0
  },
  {
    "id": "14bcc78c-59a4-42b3-acd3-bc776359539d",
    "data": [
      {
        "text": "answer the question",
        "userDefined": false
      }
    ],
    "isTemplate": false,
    "count": 0,
    "updated": 0
  },
  {
    "id": "acc0fb01-d878-4e9b-bb9a-9875b6991a07",
    "data": [
      {
        "text": "can you answer me",
        "userDefined": false
      }
    ],
    "isTemplate": false,
    "count": 0,
    "updated": 0
  },
  {
    "id": "9bfab3a3-8382-4cd6-8e92-cd63b4bb8ed7",
    "data": [
      {
        "text": "tell me the answer",
        "userDefined": false
      }
    ],
    "isTemplate": false,
    "count": 0,
    "updated": 0
  },
  {
    "id": "68434068-ce87-4c64-8348-a4f3ef690035",
    "data": [
      {
        "text": "answering questions",
        "userDefined": false
      }
    ],
    "isTemplate": false,
    "count": 0,
    "updated": 0
  },
  {
    "id": "eb568cbc-afc6-4d91-9f60-dd6ad4465ab1",
    "data": [
      {
        "text": "answers",
        "userDefined": false
      }
    ],
    "isTemplate": false,
    "count": 0,
    "updated": 0
  },
  {
    "id": "dde1c49a-b5ca-4f56-8e27-8a95507533e5",
    "data": [
      {
        "text": "I have a question",
        "userDefined": false
      }
    ],
    "isTemplate": false,
    "count": 0,
    "updated": 0
  },
  {
    "id": "115e4058-b07b-49a0-943f-816e9e857adf",
    "data": [
      {
        "text": "just answer my question",
        "userDefined": false
      }
    ],
    "isTemplate": false,
    "count": 0,
    "updated": 0
  },
  {
    "id": "74df28f6-7925-47d9-bdc8-2e69856ca1b9",
    "data": [
      {
        "text": "can you answer",
        "userDefined": false
      }
    ],
    "isTemplate": false,
    "count": 0,
    "updated": 0
  },
  {
    "id": "ef1d185c-914f-4294-bd2e-42b1083dc7b8",
    "data": [
      {
        "text": "I want you to answer my question",
        "userDefined": false
      }
    ],
    "isTemplate": false,
    "count": 0,
    "updated": 0
  },
  {
    "id": "074aefb1-eef7-4638-8821-6d3802ee0003",
    "data": [
      {
        "text": "answer my question",
        "userDefined": false
      }
    ],
    "isTemplate": false,
    "count": 0,
    "updated": 0
  },
  {
    "id": "52f12bcd-b899-45a8-9845-c66667f7aca8",
    "data": [
      {
        "text": "answer",
        "userDefined": false
      }
    ],
    "isTemplate": false,
    "count": 0,
    "updated": 0
  },
  {
    "id": "27f995df-2e0c-42c9-81c5-5957138b4ab9",
    "data": [
      {
        "text": "answer ",
        "userDefined": false
      },
      {
        "text": "it",
        "meta": "@sys.ignore",
        "userDefined": false
      }
    ],
    "isTemplate": false,
    "count": 0,
    "updated": 0
  },
  {
    "id": "a4b323e0-bdc6-4f78-86b3-422ddbb62bf6",
    "data": [
      {
        "text": "I want you to answer ",
        "userDefined": false
      },
      {
        "text": "me",
        "meta": "@sys.ignore",
        "userDefined": false
      }
    ],
    "isTemplate": false,
    "count": 0,
    "updated": 0
  },
  {
    "id": "40d0c313-1d2f-4dd1-b49c-ffda1209dd99",
    "data": [
      {
        "text": "just answer the question",
        "userDefined": false
      }
    ],
    "isTemplate": false,
    "count": 0,
    "updated": 0
  }
]