[
  {
    "id": "80f7a11d-81e6-40bc-b7b5-3d2ad7e1d891",
    "data": [
      {
        "text": "pleasure to ",
        "userDefined": false
      },
      {
        "text": "meet",
        "meta": "@sys.ignore",
        "userDefined": false
      },
      {
        "text": " you",
        "userDefined": false
      }
    ],
    "isTemplate": false,
    "count": 0,
    "updated": 0
  },
  {
    "id": "672fec98-3b29-48a2-b2ba-6fa07bca6f84",
    "data": [
      {
        "text": "nice",
        "meta": "@sys.ignore",
        "userDefined": false
      },
      {
        "text": " to ",
        "userDefined": false
      },
      {
        "text": "meet",
        "meta": "@sys.ignore",
        "userDefined": false
      },
      {
        "text": " you too",
        "userDefined": false
      }
    ],
    "isTemplate": false,
    "count": 0,
    "updated": 0
  },
  {
    "id": "e05d4a64-cc9a-424d-b724-bbd54a933be2",
    "data": [
      {
        "text": "nice",
        "meta": "@sys.ignore",
        "userDefined": false
      },
      {
        "text": " ",
        "userDefined": false
      },
      {
        "text": "meeting",
        "meta": "@sys.ignore",
        "userDefined": false
      },
      {
        "text": " you",
        "userDefined": false
      }
    ],
    "isTemplate": false,
    "count": 0,
    "updated": 0
  },
  {
    "id": "6ec7e20e-e68f-4a0c-a3b8-c7e169d9b22d",
    "data": [
      {
        "text": "pleasure to ",
        "userDefined": false
      },
      {
        "text": "meet",
        "meta": "@sys.ignore",
        "userDefined": false
      },
      {
        "text": " you too",
        "userDefined": false
      }
    ],
    "isTemplate": false,
    "count": 0,
    "updated": 0
  },
  {
    "id": "177d1be3-4cc8-4324-b8c2-1868c6134754",
    "data": [
      {
        "text": "pleased to ",
        "userDefined": false
      },
      {
        "text": "meet",
        "meta": "@sys.ignore",
        "userDefined": false
      },
      {
        "text": " you",
        "userDefined": false
      }
    ],
    "isTemplate": false,
    "count": 0,
    "updated": 0
  },
  {
    "id": "4893fe13-075c-456a-b927-3f81cd88f2d5",
    "data": [
      {
        "text": "glad to ",
        "userDefined": false
      },
      {
        "text": "meet",
        "meta": "@sys.ignore",
        "userDefined": false
      },
      {
        "text": " you",
        "userDefined": false
      }
    ],
    "isTemplate": false,
    "count": 0,
    "updated": 0
  },
  {
    "id": "66e4291a-c005-40c3-8a85-984c53f0b262",
    "data": [
      {
        "text": "it",
        "meta": "@sys.ignore",
        "userDefined": false
      },
      {
        "text": " was ",
        "userDefined": false
      },
      {
        "text": "nice",
        "meta": "@sys.ignore",
        "userDefined": false
      },
      {
        "text": " ",
        "userDefined": false
      },
      {
        "text": "meeting",
        "meta": "@sys.ignore",
        "userDefined": false
      },
      {
        "text": " you",
        "userDefined": false
      }
    ],
    "isTemplate": false,
    "count": 0,
    "updated": 0
  },
  {
    "id": "aa6d9f8d-e596-4061-ad56-2f894b60c645",
    "data": [
      {
        "text": "good to know ",
        "userDefined": false
      },
      {
        "text": "each",
        "meta": "@sys.ignore",
        "userDefined": false
      },
      {
        "text": " other",
        "userDefined": false
      }
    ],
    "isTemplate": false,
    "count": 0,
    "updated": 0
  },
  {
    "id": "324a1680-707d-4de0-93ad-3783edb4e1d4",
    "data": [
      {
        "text": "it",
        "meta": "@sys.ignore",
        "userDefined": false
      },
      {
        "text": " was very ",
        "userDefined": false
      },
      {
        "text": "nice",
        "meta": "@sys.ignore",
        "userDefined": false
      },
      {
        "text": " to ",
        "userDefined": false
      },
      {
        "text": "meet",
        "meta": "@sys.ignore",
        "userDefined": false
      },
      {
        "text": " you",
        "userDefined": false
      }
    ],
    "isTemplate": false,
    "count": 0,
    "updated": 0
  },
  {
    "id": "02584c2c-b7d8-4a4c-89c8-27ad743c7dbd",
    "data": [
      {
        "text": "nice",
        "meta": "@sys.ignore",
        "userDefined": false
      },
      {
        "text": " to ",
        "userDefined": false
      },
      {
        "text": "meet",
        "meta": "@sys.ignore",
        "userDefined": false
      },
      {
        "text": " you",
        "userDefined": false
      }
    ],
    "isTemplate": false,
    "count": 0,
    "updated": 0
  }
]