[
  {
    "id": "ec4fe1a2-0564-4a04-94df-b848339ae648",
    "data": [
      {
        "text": "you\u0027re very hungry",
        "userDefined": false
      }
    ],
    "isTemplate": false,
    "count": 1,
    "updated": 0
  },
  {
    "id": "3117fc7d-895e-47d6-b28d-74c39acc4f68",
    "data": [
      {
        "text": "you ",
        "userDefined": false
      },
      {
        "text": "are",
        "meta": "@sys.ignore",
        "userDefined": false
      },
      {
        "text": " hungry",
        "userDefined": false
      }
    ],
    "isTemplate": false,
    "count": 0,
    "updated": 0
  },
  {
    "id": "3c8ec724-84fc-47da-998b-5db966828cf7",
    "data": [
      {
        "text": "do you want to ",
        "userDefined": false
      },
      {
        "text": "eat",
        "meta": "@sys.ignore",
        "userDefined": false
      }
    ],
    "isTemplate": false,
    "count": 0,
    "updated": 0
  },
  {
    "id": "42c2cb81-8471-499c-904a-0c106de9504f",
    "data": [
      {
        "text": "you\u0027re so hungry",
        "userDefined": false
      }
    ],
    "isTemplate": false,
    "count": 0,
    "updated": 0
  },
  {
    "id": "d49c58f0-0c55-434a-87a6-f50b4ed06054",
    "data": [
      {
        "text": "would you like to ",
        "userDefined": false
      },
      {
        "text": "eat",
        "meta": "@sys.ignore",
        "userDefined": false
      },
      {
        "text": " something",
        "userDefined": false
      }
    ],
    "isTemplate": false,
    "count": 0,
    "updated": 0
  },
  {
    "id": "cbdc5644-554a-408b-bf0b-2ebe9f71a2a1",
    "data": [
      {
        "text": "are",
        "meta": "@sys.ignore",
        "userDefined": false
      },
      {
        "text": " you hungry",
        "userDefined": false
      }
    ],
    "isTemplate": false,
    "count": 0,
    "updated": 0
  },
  {
    "id": "ef26d16c-a27e-4a71-9348-25859d41e869",
    "data": [
      {
        "text": "you might be hungry",
        "userDefined": false
      }
    ],
    "isTemplate": false,
    "count": 0,
    "updated": 0
  },
  {
    "id": "c4ea84cf-6fc9-457a-a772-02573d5c68a3",
    "data": [
      {
        "text": "you\u0027re really hungry",
        "userDefined": false
      }
    ],
    "isTemplate": false,
    "count": 0,
    "updated": 0
  }
]