[
  {
    "id": "d9ebc56d-a34d-439d-828c-c4fa3b1cdacb",
    "data": [
      {
        "text": "do you have a hobby",
        "userDefined": false
      }
    ],
    "isTemplate": false,
    "count": 0,
    "updated": 0
  },
  {
    "id": "e4aafac2-13bc-4a64-a848-18645657ad1a",
    "data": [
      {
        "text": "what about your hobby",
        "userDefined": false
      }
    ],
    "isTemplate": false,
    "count": 0,
    "updated": 0
  },
  {
    "id": "9906d186-021e-4112-aa6d-69e8a7cf4bb3",
    "data": [
      {
        "text": "what\u0027s your hobby",
        "userDefined": false
      }
    ],
    "isTemplate": false,
    "count": 0,
    "updated": 0
  },
  {
    "id": "396ab2ba-1ae9-44cf-ba22-11bfafe3f0ca",
    "data": [
      {
        "text": "what do you do for fun",
        "userDefined": false
      }
    ],
    "isTemplate": false,
    "count": 0,
    "updated": 0
  },
  {
    "id": "ec59f275-56cb-4c71-a87a-b25ef0bdab5f",
    "data": [
      {
        "text": "your hobby",
        "userDefined": false
      }
    ],
    "isTemplate": false,
    "count": 0,
    "updated": 0
  },
  {
    "id": "386d61fc-9203-4086-ae9a-d90c2b209352",
    "data": [
      {
        "text": "what ",
        "userDefined": false
      },
      {
        "text": "are",
        "meta": "@sys.ignore",
        "userDefined": true
      },
      {
        "text": " your hobbies",
        "userDefined": false
      }
    ],
    "isTemplate": false,
    "count": 0,
    "updated": 0
  },
  {
    "id": "1e1be896-ffe2-49db-9f44-b32c32666737",
    "data": [
      {
        "text": "tell ",
        "userDefined": false
      },
      {
        "text": "me",
        "meta": "@sys.ignore",
        "userDefined": true
      },
      {
        "text": " about your hobby",
        "userDefined": false
      }
    ],
    "isTemplate": false,
    "count": 0,
    "updated": 0
  }
]