[
  {
    "id": "fd47f243-8cf8-452f-a39b-75b452835a04",
    "data": [
      {
        "text": "when were you born",
        "userDefined": false
      }
    ],
    "isTemplate": false,
    "count": 0,
    "updated": 0
  },
  {
    "id": "d6bdf829-a77b-4a4d-bc68-b0081b779f66",
    "data": [
      {
        "text": "when do you have ",
        "userDefined": false
      },
      {
        "text": "birthday",
        "meta": "@sys.ignore",
        "userDefined": false
      }
    ],
    "isTemplate": false,
    "count": 0,
    "updated": 0
  },
  {
    "id": "e2955513-b371-4981-a91e-f9638aae5d3a",
    "data": [
      {
        "text": "when is your ",
        "userDefined": false
      },
      {
        "text": "birthday",
        "meta": "@sys.ignore",
        "userDefined": false
      }
    ],
    "isTemplate": false,
    "count": 0,
    "updated": 0
  },
  {
    "id": "7909c2cc-b5c8-4649-8973-9ecddebf7149",
    "data": [
      {
        "text": "your",
        "meta": "@sys.ignore",
        "userDefined": false
      },
      {
        "text": " birth date",
        "userDefined": false
      }
    ],
    "isTemplate": false,
    "count": 0,
    "updated": 0
  },
  {
    "id": "7f690597-0c60-466f-b71e-7408668e116e",
    "data": [
      {
        "text": "when do you celebrate your ",
        "userDefined": false
      },
      {
        "text": "birthday",
        "meta": "@sys.ignore",
        "userDefined": false
      }
    ],
    "isTemplate": false,
    "count": 0,
    "updated": 0
  },
  {
    "id": "1ee1f947-b09b-43a8-9386-ec7e9bd6f200",
    "data": [
      {
        "text": "date of your ",
        "userDefined": false
      },
      {
        "text": "birthday",
        "meta": "@sys.ignore",
        "userDefined": false
      }
    ],
    "isTemplate": false,
    "count": 0,
    "updated": 0
  },
  {
    "id": "5122bcb5-f26e-4db1-9945-4aea1e3ffee1",
    "data": [
      {
        "text": "what\u0027s your ",
        "userDefined": false
      },
      {
        "text": "birthday",
        "meta": "@sys.ignore",
        "userDefined": false
      }
    ],
    "isTemplate": false,
    "count": 0,
    "updated": 0
  }
]