[
  {
    "id": "e18c7e62-afcc-4aa5-9591-67f1ba31fdd6",
    "data": [
      {
        "text": "where\u0027s your house",
        "userDefined": false
      }
    ],
    "isTemplate": false,
    "count": 0,
    "updated": 0
  },
  {
    "id": "17eb137c-1b40-406d-b114-59ed4690f258",
    "data": [
      {
        "text": "in which city do you live",
        "userDefined": false
      }
    ],
    "isTemplate": false,
    "count": 0,
    "updated": 0
  },
  {
    "id": "46380e2d-f2a3-48df-8f73-e961c3f47675",
    "data": [
      {
        "text": "where you live",
        "userDefined": false
      }
    ],
    "isTemplate": false,
    "count": 0,
    "updated": 0
  },
  {
    "id": "e552cf2d-d64c-4bb9-9669-513c85ddc162",
    "data": [
      {
        "text": "what\u0027s your home",
        "userDefined": false
      }
    ],
    "isTemplate": false,
    "count": 0,
    "updated": 0
  },
  {
    "id": "dac1bb47-7005-47f9-a970-b121a472e992",
    "data": [
      {
        "text": "tell me about your city",
        "userDefined": false
      }
    ],
    "isTemplate": false,
    "count": 0,
    "updated": 0
  },
  {
    "id": "1d6ad479-219b-4fdb-b839-24093bfdecab",
    "data": [
      {
        "text": "where do you live",
        "userDefined": false
      }
    ],
    "isTemplate": false,
    "count": 0,
    "updated": 0
  },
  {
    "id": "8044e679-8888-4c51-bec1-ca1b04a48d9c",
    "data": [
      {
        "text": "where\u0027s your hometown",
        "userDefined": false
      }
    ],
    "isTemplate": false,
    "count": 0,
    "updated": 0
  },
  {
    "id": "191f75d2-06ad-40b6-a98c-598859c0dbf9",
    "data": [
      {
        "text": "your town",
        "userDefined": false
      }
    ],
    "isTemplate": false,
    "count": 0,
    "updated": 0
  },
  {
    "id": "ce8bebf2-0183-4189-932e-d2426696e3ac",
    "data": [
      {
        "text": "where\u0027s your home",
        "userDefined": false
      }
    ],
    "isTemplate": false,
    "count": 0,
    "updated": 0
  },
  {
    "id": "906a9809-3dbc-4fd6-b4fa-1f83add62880",
    "data": [
      {
        "text": "where is your home",
        "userDefined": false
      }
    ],
    "isTemplate": false,
    "count": 0,
    "updated": 0
  },
  {
    "id": "691f02f9-50b7-4f6b-aaa3-bb27533aa7ed",
    "data": [
      {
        "text": "your",
        "meta": "@sys.ignore",
        "userDefined": false
      },
      {
        "text": " residence",
        "userDefined": false
      }
    ],
    "isTemplate": false,
    "count": 0,
    "updated": 0
  },
  {
    "id": "adf0080f-fa7e-4333-a1d5-dfe3ad8cb159",
    "data": [
      {
        "text": "where is your ",
        "userDefined": false
      },
      {
        "text": "hometown",
        "meta": "@sys.ignore",
        "userDefined": false
      }
    ],
    "isTemplate": false,
    "count": 0,
    "updated": 0
  },
  {
    "id": "5a054aa0-7729-476c-9ae1-0efddceed5cd",
    "data": [
      {
        "text": "your ",
        "userDefined": false
      },
      {
        "text": "hometown",
        "meta": "@sys.ignore",
        "userDefined": false
      }
    ],
    "isTemplate": false,
    "count": 0,
    "updated": 0
  },
  {
    "id": "5fef541d-9aee-475c-ab14-ea57b8ff7ebd",
    "data": [
      {
        "text": "what\u0027s your city",
        "userDefined": false
      }
    ],
    "isTemplate": false,
    "count": 0,
    "updated": 0
  },
  {
    "id": "ccf41b99-5f16-42c0-8c33-d84203988151",
    "data": [
      {
        "text": "what is your town",
        "userDefined": false
      }
    ],
    "isTemplate": false,
    "count": 0,
    "updated": 0
  },
  {
    "id": "416f6ab7-a918-49a9-a3ec-16bbb05df2c4",
    "data": [
      {
        "text": "your city",
        "userDefined": false
      }
    ],
    "isTemplate": false,
    "count": 0,
    "updated": 0
  },
  {
    "id": "df6baa98-aaba-4e3c-9653-732d19eafd89",
    "data": [
      {
        "text": "where is your residence",
        "userDefined": false
      }
    ],
    "isTemplate": false,
    "count": 0,
    "updated": 0
  },
  {
    "id": "3c9713a8-b69b-498b-a1dd-bc55a442bd42",
    "data": [
      {
        "text": "what is your ",
        "userDefined": false
      },
      {
        "text": "hometown",
        "meta": "@sys.ignore",
        "userDefined": false
      }
    ],
    "isTemplate": false,
    "count": 0,
    "updated": 0
  },
  {
    "id": "c5afea7a-2367-419b-aca6-18ec0495ed07",
    "data": [
      {
        "text": "your ",
        "userDefined": false
      },
      {
        "text": "home",
        "meta": "@sys.ignore",
        "userDefined": false
      }
    ],
    "isTemplate": false,
    "count": 0,
    "updated": 0
  },
  {
    "id": "bc751a41-22e6-4048-b9c6-a0173224f9c9",
    "data": [
      {
        "text": "what is your residence",
        "userDefined": false
      }
    ],
    "isTemplate": false,
    "count": 0,
    "updated": 0
  },
  {
    "id": "ca7d33d8-ae53-4e56-96a1-9692aaa726d1",
    "data": [
      {
        "text": "is ",
        "userDefined": false
      },
      {
        "text": "it",
        "meta": "@sys.ignore",
        "userDefined": false
      },
      {
        "text": " your ",
        "userDefined": false
      },
      {
        "text": "hometown",
        "meta": "@sys.ignore",
        "userDefined": false
      }
    ],
    "isTemplate": false,
    "count": 0,
    "updated": 0
  },
  {
    "id": "52b26bcb-52e9-48b9-a009-6a42aa4c7964",
    "data": [
      {
        "text": "your ",
        "userDefined": false
      },
      {
        "text": "house",
        "meta": "@sys.ignore",
        "userDefined": false
      }
    ],
    "isTemplate": false,
    "count": 0,
    "updated": 0
  },
  {
    "id": "84a9d611-61ee-4545-a833-018ffceaeb5a",
    "data": [
      {
        "text": "what is your city",
        "userDefined": false
      }
    ],
    "isTemplate": false,
    "count": 0,
    "updated": 0
  }
]