[
  {
    "id": "d522acd5-5457-4c48-a822-b7b31022dcad",
    "data": [
      {
        "text": "you\u0027re telling the truth",
        "userDefined": false
      }
    ],
    "isTemplate": false,
    "count": 0,
    "updated": 0
  },
  {
    "id": "e7d8a5a4-3b88-4bb6-8863-bb4f7cdfe0fc",
    "data": [
      {
        "text": "that is right",
        "userDefined": false
      }
    ],
    "isTemplate": false,
    "count": 0,
    "updated": 0
  },
  {
    "id": "b8ecc4d7-1551-43bb-9665-cccbd790b04f",
    "data": [
      {
        "text": "you ",
        "userDefined": false
      },
      {
        "text": "are",
        "meta": "@sys.ignore",
        "userDefined": false
      },
      {
        "text": " so right",
        "userDefined": false
      }
    ],
    "isTemplate": false,
    "count": 0,
    "updated": 0
  },
  {
    "id": "04b27b89-b5e4-4c8e-b2e8-383aafb29bc0",
    "data": [
      {
        "text": "that is correct",
        "userDefined": false
      }
    ],
    "isTemplate": false,
    "count": 0,
    "updated": 0
  },
  {
    "id": "0d57cb2e-f2ae-4235-b9fa-889212a808fa",
    "data": [
      {
        "text": "you\u0027re right about that",
        "userDefined": false
      }
    ],
    "isTemplate": false,
    "count": 0,
    "updated": 0
  },
  {
    "id": "6b8dcf83-cb73-4691-ae02-6728f36a1d7f",
    "data": [
      {
        "text": "that is very true",
        "userDefined": false
      }
    ],
    "isTemplate": false,
    "count": 0,
    "updated": 0
  },
  {
    "id": "f0a32e32-de66-4e0d-8be8-ed4ece1bb6cb",
    "data": [
      {
        "text": "true",
        "userDefined": false
      }
    ],
    "isTemplate": false,
    "count": 1,
    "updated": 0
  },
  {
    "id": "d846282c-d937-4525-a740-4ced31278a66",
    "data": [
      {
        "text": "that\u0027s so true",
        "userDefined": false
      }
    ],
    "isTemplate": false,
    "count": 0,
    "updated": 0
  },
  {
    "id": "8c19c27b-32e9-439a-ad13-4925ab451587",
    "data": [
      {
        "text": "you\u0027re definitely right",
        "userDefined": false
      }
    ],
    "isTemplate": false,
    "count": 0,
    "updated": 0
  },
  {
    "id": "e92da6a0-c903-4cdc-8a42-af1c188e0f99",
    "data": [
      {
        "text": "it\u0027s true",
        "userDefined": false
      }
    ],
    "isTemplate": false,
    "count": 0,
    "updated": 0
  },
  {
    "id": "36dda020-c4c1-41cf-8a4f-33386bd22c58",
    "data": [
      {
        "text": "what you say is true",
        "userDefined": false
      }
    ],
    "isTemplate": false,
    "count": 0,
    "updated": 0
  },
  {
    "id": "5d702419-4fb7-4acb-a2e9-f062d5b07d45",
    "data": [
      {
        "text": "that\u0027s true",
        "userDefined": false
      }
    ],
    "isTemplate": false,
    "count": 0,
    "updated": 0
  },
  {
    "id": "aadd6eff-a34d-4084-95ca-9e88ffa1802d",
    "data": [
      {
        "text": "it\u0027s",
        "meta": "@sys.ignore",
        "userDefined": false
      },
      {
        "text": " right",
        "userDefined": false
      }
    ],
    "isTemplate": false,
    "count": 0,
    "updated": 0
  },
  {
    "id": "48483ea2-67f1-4f19-856b-a5fe2679ac91",
    "data": [
      {
        "text": "you ",
        "userDefined": false
      },
      {
        "text": "are",
        "meta": "@sys.ignore",
        "userDefined": false
      },
      {
        "text": " correct",
        "userDefined": false
      }
    ],
    "isTemplate": false,
    "count": 0,
    "updated": 0
  },
  {
    "id": "bf31c4e8-dbb7-4ce8-8d75-b4786b1982e1",
    "data": [
      {
        "text": "you ",
        "userDefined": false
      },
      {
        "text": "are",
        "meta": "@sys.ignore",
        "userDefined": false
      },
      {
        "text": " right",
        "userDefined": false
      }
    ],
    "isTemplate": false,
    "count": 0,
    "updated": 0
  },
  {
    "id": "6ba1e98e-6810-43b6-8578-b3ccda4ca85b",
    "data": [
      {
        "text": "you\u0027re not wrong",
        "userDefined": false
      }
    ],
    "isTemplate": false,
    "count": 0,
    "updated": 0
  },
  {
    "id": "fb51da96-cf59-45ad-91d0-1b25fc05048b",
    "data": [
      {
        "text": "you\u0027re absolutely right",
        "userDefined": false
      }
    ],
    "isTemplate": false,
    "count": 0,
    "updated": 0
  },
  {
    "id": "c02fcae8-2aff-43f4-9403-191fb3dd8552",
    "data": [
      {
        "text": "it",
        "meta": "@sys.ignore",
        "userDefined": false
      },
      {
        "text": " is true",
        "userDefined": false
      }
    ],
    "isTemplate": false,
    "count": 0,
    "updated": 0
  },
  {
    "id": "962f0ab6-0886-4682-a05b-4f09e4098f05",
    "data": [
      {
        "text": "it\u0027s",
        "meta": "@sys.ignore",
        "userDefined": false
      },
      {
        "text": " the truth",
        "userDefined": false
      }
    ],
    "isTemplate": false,
    "count": 0,
    "updated": 0
  },
  {
    "id": "800dfbf0-25d1-46df-bce4-833c64787542",
    "data": [
      {
        "text": "I know that\u0027s right",
        "userDefined": false
      }
    ],
    "isTemplate": false,
    "count": 0,
    "updated": 0
  },
  {
    "id": "9353e224-bd65-4e4c-b97a-59226839ab1b",
    "data": [
      {
        "text": "that\u0027s correct",
        "userDefined": false
      }
    ],
    "isTemplate": false,
    "count": 0,
    "updated": 0
  },
  {
    "id": "58d82347-55b4-4de1-8410-a1a8b12d888e",
    "data": [
      {
        "text": "that is true",
        "userDefined": false
      }
    ],
    "isTemplate": false,
    "count": 0,
    "updated": 0
  }
]