[
  {
    "id": "f52524a5-cf20-4d81-a94f-c517a6f6b38c",
    "data": [
      {
        "text": "miss",
        "meta": "@sys.ignore",
        "userDefined": false
      },
      {
        "text": " you",
        "userDefined": false
      }
    ],
    "isTemplate": false,
    "count": 0,
    "updated": 0
  },
  {
    "id": "9ee56d08-3a95-467c-8135-de074776e615",
    "data": [
      {
        "text": "I ",
        "userDefined": false
      },
      {
        "text": "miss",
        "meta": "@sys.ignore",
        "userDefined": false
      },
      {
        "text": " you much",
        "userDefined": false
      }
    ],
    "isTemplate": false,
    "count": 0,
    "updated": 0
  },
  {
    "id": "54db107c-08ea-460f-ab90-c6c157030753",
    "data": [
      {
        "text": "I\u0027ve ",
        "userDefined": false
      },
      {
        "text": "missed",
        "meta": "@sys.ignore",
        "userDefined": false
      },
      {
        "text": " you",
        "userDefined": false
      }
    ],
    "isTemplate": false,
    "count": 0,
    "updated": 0
  },
  {
    "id": "43e6515b-588e-4aa3-8813-508837cafe75",
    "data": [
      {
        "text": "already ",
        "userDefined": false
      },
      {
        "text": "miss",
        "meta": "@sys.ignore",
        "userDefined": false
      },
      {
        "text": " you",
        "userDefined": false
      }
    ],
    "isTemplate": false,
    "count": 0,
    "updated": 0
  },
  {
    "id": "1e591d0a-0bee-439a-a0fb-4257c28dde63",
    "data": [
      {
        "text": "I ",
        "userDefined": false
      },
      {
        "text": "miss",
        "meta": "@sys.ignore",
        "userDefined": false
      },
      {
        "text": " you",
        "userDefined": false
      }
    ],
    "isTemplate": false,
    "count": 0,
    "updated": 0
  },
  {
    "id": "094a04c8-7c39-46de-86f9-92fe018fee96",
    "data": [
      {
        "text": "I ",
        "userDefined": false
      },
      {
        "text": "missed",
        "meta": "@sys.ignore",
        "userDefined": false
      },
      {
        "text": " you",
        "userDefined": false
      }
    ],
    "isTemplate": false,
    "count": 0,
    "updated": 0
  },
  {
    "id": "654801e5-2197-4ef6-8b01-9d2618cb0b3c",
    "data": [
      {
        "text": "missing you",
        "userDefined": false
      }
    ],
    "isTemplate": false,
    "count": 0,
    "updated": 0
  }
]