[
  {
    "value": "come",
    "synonyms": [
      "appear",
      "appered",
      "arrive",
      "arrived",
      "arriving",
      "came",
      "come",
      "coming",
      "enter",
      "entered",
      "get in",
      "get in the",
      "get into",
      "gets in"
    ]
  },
  {
    "value": "everyone absent",
    "synonyms": [
      "everyone absent",
      "no one is at home",
      "no one is home"
    ]
  },
  {
    "value": "leave",
    "synonyms": [
      "abandon",
      "abandoned",
      "abondon",
      "abondoned",
      "get in",
      "go out",
      "leave",
      "leaves",
      "leaving",
      "left",
      "quit",
      "went out"
    ]
  },
  {
    "value": "sunrise",
    "synonyms": [
      "dawn",
      "sun rising",
      "sunrise",
      "when the sun goes up",
      "when the sun rises"
    ]
  },
  {
    "value": "sunset",
    "synonyms": [
      "dusk",
      "sun setting",
      "sunset",
      "when the sun goes down",
      "when the sun sets"
    ]
  },
  {
    "value": "when I come home",
    "synonyms": [
      "when I come home"
    ]
  },
  {
    "value": "when I leave home",
    "synonyms": [
      "when I leave home"
    ]
  }
]