[
  {
    "id": "1578b077-5ba3-4554-9759-9fbd4dc56c49",
    "data": [
      {
        "text": "be smarter",
        "userDefined": false
      }
    ],
    "isTemplate": false,
    "count": 0,
    "updated": 0
  },
  {
    "id": "aa4c88ec-cce6-4ccc-9aff-4302a89d4ffb",
    "data": [
      {
        "text": "get",
        "meta": "@sys.ignore",
        "userDefined": true
      },
      {
        "text": " qualified",
        "userDefined": false
      }
    ],
    "isTemplate": false,
    "count": 0,
    "updated": 0
  },
  {
    "id": "c4dcc743-110a-4212-9525-978b31450db2",
    "data": [
      {
        "text": "you should ",
        "userDefined": false
      },
      {
        "text": "study",
        "meta": "@sys.ignore",
        "userDefined": true
      },
      {
        "text": " better",
        "userDefined": false
      }
    ],
    "isTemplate": false,
    "count": 0,
    "updated": 0
  },
  {
    "id": "5da38430-497e-40fb-9069-e16879fc2b05",
    "data": [
      {
        "text": "be more clever",
        "userDefined": false
      }
    ],
    "isTemplate": false,
    "count": 0,
    "updated": 0
  },
  {
    "id": "50a4da07-66d0-4b50-954f-01a619197e1a",
    "data": [
      {
        "text": "study",
        "userDefined": false
      }
    ],
    "isTemplate": false,
    "count": 0,
    "updated": 0
  },
  {
    "id": "98f31769-d6c5-4a7e-94bb-c35ee646fc60",
    "data": [
      {
        "text": "be ",
        "userDefined": false
      },
      {
        "text": "smart",
        "meta": "@sys.ignore",
        "userDefined": true
      }
    ],
    "isTemplate": false,
    "count": 0,
    "updated": 0
  },
  {
    "id": "b6afd9a6-a455-42c5-91b6-9791d074e33b",
    "data": [
      {
        "text": "can you get smarter",
        "userDefined": false
      }
    ],
    "isTemplate": false,
    "count": 0,
    "updated": 0
  },
  {
    "id": "d72fac43-760a-4b43-89ad-ca88decdc66c",
    "data": [
      {
        "text": "be clever",
        "userDefined": false
      }
    ],
    "isTemplate": false,
    "count": 0,
    "updated": 0
  },
  {
    "id": "a418d4b8-4d49-4dbd-8c04-3f52200226d1",
    "data": [
      {
        "text": "you ",
        "userDefined": false
      },
      {
        "text": "must",
        "meta": "@sys.ignore",
        "userDefined": true
      },
      {
        "text": " learn",
        "userDefined": false
      }
    ],
    "isTemplate": false,
    "count": 0,
    "updated": 0
  }
]