[
  {
    "id": "922b3090-f650-414d-bc6e-dc029c261015",
    "data": [
      {
        "text": "can you help me",
        "userDefined": false
      }
    ],
    "isTemplate": false,
    "count": 1,
    "updated": 0
  },
  {
    "id": "2cf4cc87-969d-4e46-823d-a812ebc72fe5",
    "data": [
      {
        "text": "I need you ",
        "userDefined": false
      },
      {
        "text": "right now",
        "meta": "@sys.ignore",
        "userDefined": true
      }
    ],
    "isTemplate": false,
    "count": 0,
    "updated": 0
  },
  {
    "id": "a8d290ae-cb17-4dce-bd0c-7c894920faff",
    "data": [
      {
        "text": "I need ",
        "userDefined": false
      },
      {
        "text": "your",
        "meta": "@sys.ignore",
        "userDefined": false
      },
      {
        "text": " help",
        "userDefined": false
      }
    ],
    "isTemplate": false,
    "count": 0,
    "updated": 0
  },
  {
    "id": "1c3452e2-0ac4-46b4-9921-d3db70d3b0b7",
    "data": [
      {
        "text": "assistance",
        "userDefined": false
      }
    ],
    "isTemplate": false,
    "count": 0,
    "updated": 0
  },
  {
    "id": "1ba42df8-4589-4d6e-93d3-8a4ef6808bfd",
    "data": [
      {
        "text": "do you want to help me",
        "userDefined": false
      }
    ],
    "isTemplate": false,
    "count": 1,
    "updated": 0
  },
  {
    "id": "d7d91af1-43e1-496e-ba21-fa157e33bd1d",
    "data": [
      {
        "text": "help me",
        "userDefined": false
      }
    ],
    "isTemplate": false,
    "count": 0,
    "updated": 0
  },
  {
    "id": "50039d00-47c7-4ffe-8ae5-906b3c4350dc",
    "data": [
      {
        "text": "I need help",
        "userDefined": false
      }
    ],
    "isTemplate": false,
    "count": 0,
    "updated": 0
  },
  {
    "id": "a9744c09-048a-42c0-8f3e-490dd0ee0dc0",
    "data": [
      {
        "text": "I want ",
        "userDefined": false
      },
      {
        "text": "your",
        "meta": "@sys.ignore",
        "userDefined": true
      },
      {
        "text": " help",
        "userDefined": false
      }
    ],
    "isTemplate": false,
    "count": 0,
    "updated": 0
  },
  {
    "id": "22b59549-4d3f-4ae9-92e5-c561d44fec6d",
    "data": [
      {
        "text": "can help me",
        "userDefined": false
      }
    ],
    "isTemplate": false,
    "count": 0,
    "updated": 0
  },
  {
    "id": "639508bf-31d7-4aaf-af64-3c0231956778",
    "data": [
      {
        "text": "I need you to help me",
        "userDefined": false
      }
    ],
    "isTemplate": false,
    "count": 0,
    "updated": 0
  },
  {
    "id": "12f10037-7f7c-42fb-a770-a342709cede6",
    "data": [
      {
        "text": "would you help me",
        "userDefined": false
      }
    ],
    "isTemplate": false,
    "count": 0,
    "updated": 0
  },
  {
    "id": "5686a3b7-1747-4dbc-bf53-fec7ae72d604",
    "data": [
      {
        "text": "are",
        "meta": "@sys.ignore",
        "userDefined": true
      },
      {
        "text": " you going to help me",
        "userDefined": false
      }
    ],
    "isTemplate": false,
    "count": 0,
    "updated": 0
  },
  {
    "id": "c8171e3b-91fa-4b79-b3c8-6dfc29037ae5",
    "data": [
      {
        "text": "you help me",
        "userDefined": false
      }
    ],
    "isTemplate": false,
    "count": 2,
    "updated": 0
  },
  {
    "id": "1a299d4d-249f-4d6d-bcfa-a786d4a5bdcd",
    "data": [
      {
        "text": "can u help me",
        "userDefined": false
      }
    ],
    "isTemplate": false,
    "count": 0,
    "updated": 0
  },
  {
    "id": "277a1b82-695a-4fae-ab89-8a2643fc244d",
    "data": [
      {
        "text": "I need a hand",
        "userDefined": false
      }
    ],
    "isTemplate": false,
    "count": 1,
    "updated": 0
  },
  {
    "id": "4a45bd14-4f16-4195-a242-2110a27b0a1f",
    "data": [
      {
        "text": "can you help me out",
        "userDefined": false
      }
    ],
    "isTemplate": false,
    "count": 0,
    "updated": 0
  },
  {
    "id": "2ef0a3ea-6ae1-46c4-98c8-41a3aab8100e",
    "data": [
      {
        "text": "can you help me now",
        "userDefined": false
      }
    ],
    "isTemplate": false,
    "count": 0,
    "updated": 0
  },
  {
    "id": "f7a5b52f-420c-4f17-accb-e5c831a790f0",
    "data": [
      {
        "text": "will",
        "meta": "@sys.ignore",
        "userDefined": true
      },
      {
        "text": " you help me",
        "userDefined": false
      }
    ],
    "isTemplate": false,
    "count": 0,
    "updated": 0
  },
  {
    "id": "e024f49d-2d59-40ee-8379-e72ca96b27c9",
    "data": [
      {
        "text": "I need you to do something for me",
        "userDefined": false
      }
    ],
    "isTemplate": false,
    "count": 0,
    "updated": 0
  },
  {
    "id": "17089de7-23dd-418c-9b9f-3431f1f0185d",
    "data": [
      {
        "text": "please help me",
        "userDefined": false
      }
    ],
    "isTemplate": false,
    "count": 0,
    "updated": 0
  },
  {
    "id": "adca779f-112a-4eaa-a5a3-c7cde6fad43f",
    "data": [
      {
        "text": "sos",
        "userDefined": false
      }
    ],
    "isTemplate": false,
    "count": 0,
    "updated": 0
  },
  {
    "id": "cb3d9052-1597-4ebe-9ab9-93d47c672a34",
    "data": [
      {
        "text": "can you help me with something",
        "userDefined": false
      }
    ],
    "isTemplate": false,
    "count": 1,
    "updated": 0
  },
  {
    "id": "1c468fdb-7d70-4aff-8d63-ea9d047dacb3",
    "data": [
      {
        "text": "I need you",
        "userDefined": false
      }
    ],
    "isTemplate": false,
    "count": 0,
    "updated": 0
  },
  {
    "id": "87faf700-a210-49a5-99f0-5242225753db",
    "data": [
      {
        "text": "assist me",
        "userDefined": false
      }
    ],
    "isTemplate": false,
    "count": 0,
    "updated": 0
  },
  {
    "id": "cc0e7566-40ff-4561-92a4-e2fa92137a0c",
    "data": [
      {
        "text": "can you help",
        "userDefined": false
      }
    ],
    "isTemplate": false,
    "count": 0,
    "updated": 0
  },
  {
    "id": "4db88494-de4c-443e-85dc-ff7fe2050338",
    "data": [
      {
        "text": "need help",
        "userDefined": false
      }
    ],
    "isTemplate": false,
    "count": 0,
    "updated": 0
  },
  {
    "id": "f616fa39-8b66-49f8-8251-1012cad2156d",
    "data": [
      {
        "text": "can you help ",
        "userDefined": false
      },
      {
        "text": "us",
        "meta": "@sys.ignore",
        "userDefined": true
      }
    ],
    "isTemplate": false,
    "count": 1,
    "updated": 0
  },
  {
    "id": "a0a5d992-c067-48af-b9fa-9936b98b736a",
    "data": [
      {
        "text": "I need some help",
        "userDefined": false
      }
    ],
    "isTemplate": false,
    "count": 0,
    "updated": 0
  },
  {
    "id": "2dc0af49-26fd-4619-930b-fefc0593dd80",
    "data": [
      {
        "text": "do me a favor",
        "userDefined": false
      }
    ],
    "isTemplate": false,
    "count": 0,
    "updated": 0
  },
  {
    "id": "38f21f26-4c27-4c84-ab3b-255dfaa356ae",
    "data": [
      {
        "text": "can you assist me",
        "userDefined": false
      }
    ],
    "isTemplate": false,
    "count": 1,
    "updated": 0
  },
  {
    "id": "f5e64590-5a79-428a-a52c-68245523c233",
    "data": [
      {
        "text": "can you do something for me",
        "userDefined": false
      }
    ],
    "isTemplate": false,
    "count": 0,
    "updated": 0
  },
  {
    "id": "5bffd9a0-408e-4765-a002-e4720b5c9073",
    "data": [
      {
        "text": "can you help me with that",
        "userDefined": false
      }
    ],
    "isTemplate": false,
    "count": 0,
    "updated": 0
  },
  {
    "id": "a8e99e48-9bef-489d-9102-aadcbdded356",
    "data": [
      {
        "text": "you can help me",
        "userDefined": false
      }
    ],
    "isTemplate": false,
    "count": 0,
    "updated": 0
  },
  {
    "id": "ca9c8684-9163-445f-a6b6-5f8714cc686b",
    "data": [
      {
        "text": "help me with a problem",
        "userDefined": false
      }
    ],
    "isTemplate": false,
    "count": 1,
    "updated": 0
  },
  {
    "id": "cfbefd1e-d800-4fae-b034-f13b9f9dc9e4",
    "data": [
      {
        "text": "need ",
        "userDefined": false
      },
      {
        "text": "your",
        "meta": "@sys.ignore",
        "userDefined": true
      },
      {
        "text": " help",
        "userDefined": false
      }
    ],
    "isTemplate": false,
    "count": 0,
    "updated": 0
  },
  {
    "id": "615f6c33-64c6-418e-9ab4-17acdad59b11",
    "data": [
      {
        "text": "assist",
        "userDefined": false
      }
    ],
    "isTemplate": false,
    "count": 0,
    "updated": 0
  },
  {
    "id": "02630218-98cf-480c-af39-ab3587df2412",
    "data": [
      {
        "text": "do you help me",
        "userDefined": false
      }
    ],
    "isTemplate": false,
    "count": 0,
    "updated": 0
  },
  {
    "id": "92c9da25-8892-436a-9bc3-c927aeb63ad7",
    "data": [
      {
        "text": "could you give ",
        "userDefined": false
      },
      {
        "text": "me",
        "meta": "@sys.ignore",
        "userDefined": false
      },
      {
        "text": " a ",
        "userDefined": false
      },
      {
        "text": "hand",
        "meta": "@sys.ignore",
        "userDefined": false
      }
    ],
    "isTemplate": false,
    "count": 2,
    "updated": 0
  },
  {
    "id": "929b00c3-8821-40c9-ba79-1e5a5c7a5862",
    "data": [
      {
        "text": "help",
        "userDefined": false
      }
    ],
    "isTemplate": false,
    "count": 0,
    "updated": 0
  }
]