[
  {
    "id": "a649e3a6-05e9-43c7-9613-e48cf44db6de",
    "data": [
      {
        "text": "I like you very much",
        "userDefined": false
      }
    ],
    "isTemplate": false,
    "count": 0,
    "updated": 0
  },
  {
    "id": "4a1331a5-22c5-411e-bc61-f1d99d244006",
    "data": [
      {
        "text": "cuz I like you",
        "userDefined": false
      }
    ],
    "isTemplate": false,
    "count": 0,
    "updated": 0
  },
  {
    "id": "26e7a03b-b435-4c82-9010-80c3a68fa74b",
    "data": [
      {
        "text": "really like you",
        "userDefined": false
      }
    ],
    "isTemplate": false,
    "count": 0,
    "updated": 0
  },
  {
    "id": "8e99c78f-04fe-448c-87bd-a9d638cca6e8",
    "data": [
      {
        "text": "good",
        "meta": "@sys.ignore",
        "userDefined": false
      },
      {
        "text": " I like you",
        "userDefined": false
      }
    ],
    "isTemplate": false,
    "count": 0,
    "updated": 0
  },
  {
    "id": "75cf86ef-a793-4d28-aeda-7152c73bcee8",
    "data": [
      {
        "text": "but I like you so much",
        "userDefined": false
      }
    ],
    "isTemplate": false,
    "count": 0,
    "updated": 0
  },
  {
    "id": "43a0c5ab-0e83-45b8-b489-1ae60cc66715",
    "data": [
      {
        "text": "I like you already",
        "userDefined": false
      }
    ],
    "isTemplate": false,
    "count": 0,
    "updated": 0
  },
  {
    "id": "6ded7979-7287-4838-8300-34c2fb6dec83",
    "data": [
      {
        "text": "I do like you",
        "userDefined": false
      }
    ],
    "isTemplate": false,
    "count": 0,
    "updated": 0
  },
  {
    "id": "6208fb40-bbc6-4b3c-862d-dba6a333ccfe",
    "data": [
      {
        "text": "I liked you",
        "userDefined": false
      }
    ],
    "isTemplate": false,
    "count": 0,
    "updated": 0
  },
  {
    "id": "1fdf885f-8026-4e3e-abd7-669cd325c2d8",
    "data": [
      {
        "text": "okay I like you",
        "userDefined": false
      }
    ],
    "isTemplate": false,
    "count": 0,
    "updated": 0
  },
  {
    "id": "635ead1d-4453-4fb2-b6f6-690742a6a99d",
    "data": [
      {
        "text": "that\u0027s why I like you",
        "userDefined": false
      }
    ],
    "isTemplate": false,
    "count": 0,
    "updated": 0
  },
  {
    "id": "07e1e7a7-7fe1-499c-90ab-286bf5b1490f",
    "data": [
      {
        "text": "you ",
        "userDefined": false
      },
      {
        "text": "are",
        "meta": "@sys.ignore",
        "userDefined": false
      },
      {
        "text": " special",
        "userDefined": false
      }
    ],
    "isTemplate": false,
    "count": 0,
    "updated": 0
  },
  {
    "id": "015c83db-7e1d-4c86-8e9c-b0dcb52f5c3d",
    "data": [
      {
        "text": "yes you ",
        "userDefined": false
      },
      {
        "text": "are",
        "meta": "@sys.ignore",
        "userDefined": false
      },
      {
        "text": " special",
        "userDefined": false
      }
    ],
    "isTemplate": false,
    "count": 0,
    "updated": 0
  },
  {
    "id": "88af7af2-ac39-444f-994d-d4a8c46a5f97",
    "data": [
      {
        "text": "you\u0027re so special to me",
        "userDefined": false
      }
    ],
    "isTemplate": false,
    "count": 0,
    "updated": 0
  },
  {
    "id": "3657f9c8-76fb-4e47-ac91-f8de9d102e2f",
    "data": [
      {
        "text": "you ",
        "userDefined": false
      },
      {
        "text": "are",
        "meta": "@sys.ignore",
        "userDefined": false
      },
      {
        "text": " very special",
        "userDefined": false
      }
    ],
    "isTemplate": false,
    "count": 0,
    "updated": 0
  },
  {
    "id": "954a7ecc-dad2-4a75-bcf0-a9978784584c",
    "data": [
      {
        "text": "I like you just the way you are",
        "userDefined": false
      }
    ],
    "isTemplate": false,
    "count": 0,
    "updated": 0
  },
  {
    "id": "4f52bd5b-5322-4a8a-975c-bda0b792d243",
    "data": [
      {
        "text": "I like you as a ",
        "userDefined": false
      },
      {
        "text": "friend",
        "meta": "@sys.ignore",
        "userDefined": false
      }
    ],
    "isTemplate": false,
    "count": 0,
    "updated": 0
  },
  {
    "id": "4074a274-0d90-47d4-90e1-5f93d0b1c6dd",
    "data": [
      {
        "text": "that\u0027s what I like about you",
        "userDefined": false
      }
    ],
    "isTemplate": false,
    "count": 0,
    "updated": 0
  },
  {
    "id": "4e6f789d-427e-44ef-b1ce-bb34f3de57ad",
    "data": [
      {
        "text": "just like you",
        "userDefined": false
      }
    ],
    "isTemplate": false,
    "count": 0,
    "updated": 0
  },
  {
    "id": "cb0d5fec-406b-473c-afb3-f5bcf1dff927",
    "data": [
      {
        "text": "I also like you",
        "userDefined": false
      }
    ],
    "isTemplate": false,
    "count": 0,
    "updated": 0
  },
  {
    "id": "271e3018-e9a2-414c-82f5-b6cc504d4511",
    "data": [
      {
        "text": "I really do like you",
        "userDefined": false
      }
    ],
    "isTemplate": false,
    "count": 0,
    "updated": 0
  },
  {
    "id": "895fedfc-7c82-47ce-b591-2cc6c349cbed",
    "data": [
      {
        "text": "no I like you the way you ",
        "userDefined": false
      },
      {
        "text": "are",
        "meta": "@sys.ignore",
        "userDefined": false
      }
    ],
    "isTemplate": false,
    "count": 0,
    "updated": 0
  },
  {
    "id": "bd19691f-2176-4a73-9a7a-b33088fb234f",
    "data": [
      {
        "text": "sorry I like you",
        "userDefined": false
      }
    ],
    "isTemplate": false,
    "count": 0,
    "updated": 0
  },
  {
    "id": "32004466-9092-4a04-b36d-c6bfd59394b2",
    "data": [
      {
        "text": "I like your smile",
        "userDefined": false
      }
    ],
    "isTemplate": false,
    "count": 0,
    "updated": 0
  },
  {
    "id": "13e5d42b-7cdc-4ba5-b8b7-e135a33cc66f",
    "data": [
      {
        "text": "I just like you",
        "userDefined": false
      }
    ],
    "isTemplate": false,
    "count": 0,
    "updated": 0
  },
  {
    "id": "1e9f999d-61dc-4225-83bb-a0d2140f0b9d",
    "data": [
      {
        "text": "I like you too much",
        "userDefined": false
      }
    ],
    "isTemplate": false,
    "count": 0,
    "updated": 0
  },
  {
    "id": "4522a87e-1c83-45e6-94c4-5e50b66ed15a",
    "data": [
      {
        "text": "like you a lot",
        "userDefined": false
      }
    ],
    "isTemplate": false,
    "count": 0,
    "updated": 0
  },
  {
    "id": "015ab5f1-72bd-48ea-81b9-f8407ac0c7c6",
    "data": [
      {
        "text": "you ",
        "userDefined": false
      },
      {
        "text": "are",
        "meta": "@sys.ignore",
        "userDefined": false
      },
      {
        "text": " special for me",
        "userDefined": false
      }
    ],
    "isTemplate": false,
    "count": 0,
    "updated": 0
  },
  {
    "id": "058548ed-ed9c-436e-99db-5d80a801477d",
    "data": [
      {
        "text": "I like you very",
        "userDefined": false
      }
    ],
    "isTemplate": false,
    "count": 0,
    "updated": 0
  },
  {
    "id": "e3436eeb-35ed-4ccf-b6a1-8ca760154e79",
    "data": [
      {
        "text": "yeah I like you",
        "userDefined": false
      }
    ],
    "isTemplate": false,
    "count": 0,
    "updated": 0
  },
  {
    "id": "03cdc003-e2ba-408a-9e29-6de32541d304",
    "data": [
      {
        "text": "you\u0027re special",
        "userDefined": false
      }
    ],
    "isTemplate": false,
    "count": 0,
    "updated": 0
  },
  {
    "id": "6cd5099b-09df-46fd-8ca7-e351e57a8fbb",
    "data": [
      {
        "text": "you\u0027re awesome I like you",
        "userDefined": false
      }
    ],
    "isTemplate": false,
    "count": 0,
    "updated": 0
  },
  {
    "id": "a89c81f1-23eb-4076-a1da-f9fa60826cd0",
    "data": [
      {
        "text": "I\u0027m",
        "meta": "@sys.ignore",
        "userDefined": false
      },
      {
        "text": " starting to like you",
        "userDefined": false
      }
    ],
    "isTemplate": false,
    "count": 0,
    "updated": 0
  },
  {
    "id": "1701bc9f-dd55-46a2-ab9f-a84c9fa5ecb5",
    "data": [
      {
        "text": "yes I like you",
        "userDefined": false
      }
    ],
    "isTemplate": false,
    "count": 0,
    "updated": 0
  },
  {
    "id": "72e5ba9a-fc34-4ee1-baba-c1b9e46fa32a",
    "data": [
      {
        "text": "that\u0027s because you ",
        "userDefined": false
      },
      {
        "text": "are",
        "meta": "@sys.ignore",
        "userDefined": false
      },
      {
        "text": " special",
        "userDefined": false
      }
    ],
    "isTemplate": false,
    "count": 0,
    "updated": 0
  },
  {
    "id": "3849b2e7-29cc-44d5-bd4e-ebe55ec15def",
    "data": [
      {
        "text": "I really like you",
        "userDefined": false
      }
    ],
    "isTemplate": false,
    "count": 0,
    "updated": 0
  },
  {
    "id": "746f321f-e350-438b-bd4c-05daeba85caf",
    "data": [
      {
        "text": "I like you you\u0027re ",
        "userDefined": false
      },
      {
        "text": "nice",
        "meta": "@sys.ignore",
        "userDefined": false
      }
    ],
    "isTemplate": false,
    "count": 0,
    "updated": 0
  },
  {
    "id": "39def649-93dc-4c0d-b7c8-04b02585635a",
    "data": [
      {
        "text": "you\u0027re very special to me",
        "userDefined": false
      }
    ],
    "isTemplate": false,
    "count": 0,
    "updated": 0
  },
  {
    "id": "ed1fdbc3-f189-4879-8801-e72172a36c9c",
    "data": [
      {
        "text": "you ",
        "userDefined": false
      },
      {
        "text": "are",
        "meta": "@sys.ignore",
        "userDefined": false
      },
      {
        "text": " so special",
        "userDefined": false
      }
    ],
    "isTemplate": false,
    "count": 0,
    "updated": 0
  },
  {
    "id": "a715aa5d-f436-400d-9d5f-c78d6cefb9ce",
    "data": [
      {
        "text": "I kinda like you",
        "userDefined": false
      }
    ],
    "isTemplate": false,
    "count": 0,
    "updated": 0
  },
  {
    "id": "f83fa02e-ef62-46f4-898e-73bacdf9e315",
    "data": [
      {
        "text": "I like you the way you ",
        "userDefined": false
      },
      {
        "text": "are",
        "meta": "@sys.ignore",
        "userDefined": false
      }
    ],
    "isTemplate": false,
    "count": 0,
    "updated": 0
  },
  {
    "id": "caf91476-5312-42d6-8da9-a8dde679e02c",
    "data": [
      {
        "text": "I like you ",
        "userDefined": false
      },
      {
        "text": "baby",
        "meta": "@sys.ignore",
        "userDefined": false
      }
    ],
    "isTemplate": false,
    "count": 0,
    "updated": 0
  },
  {
    "id": "f2c0aac3-6825-472b-ad0b-0fe67f8d219c",
    "data": [
      {
        "text": "you\u0027re very special",
        "userDefined": false
      }
    ],
    "isTemplate": false,
    "count": 0,
    "updated": 0
  },
  {
    "id": "b8ea496d-3c55-4b82-ab32-2fb7d780de12",
    "data": [
      {
        "text": "but I really like you",
        "userDefined": false
      }
    ],
    "isTemplate": false,
    "count": 0,
    "updated": 0
  },
  {
    "id": "3d86e9d9-bfcc-43e0-83fb-ded2a7bc4a9e",
    "data": [
      {
        "text": "hi I like you",
        "userDefined": false
      }
    ],
    "isTemplate": false,
    "count": 0,
    "updated": 0
  },
  {
    "id": "fc004254-138e-4945-b168-031ed1ae09ba",
    "data": [
      {
        "text": "well",
        "meta": "@sys.ignore",
        "userDefined": false
      },
      {
        "text": " you ",
        "userDefined": false
      },
      {
        "text": "are",
        "meta": "@sys.ignore",
        "userDefined": false
      },
      {
        "text": " special",
        "userDefined": false
      }
    ],
    "isTemplate": false,
    "count": 0,
    "updated": 0
  },
  {
    "id": "bbe7eb78-bd97-426b-959a-22d9ef791f5f",
    "data": [
      {
        "text": "thank you",
        "meta": "@sys.ignore",
        "userDefined": false
      },
      {
        "text": " I like you too",
        "userDefined": false
      }
    ],
    "isTemplate": false,
    "count": 0,
    "updated": 0
  },
  {
    "id": "da082650-c9b5-4f53-8135-4748bf8e164b",
    "data": [
      {
        "text": "of",
        "meta": "@sys.ignore",
        "userDefined": false
      },
      {
        "text": " course I like you",
        "userDefined": false
      }
    ],
    "isTemplate": false,
    "count": 0,
    "updated": 0
  },
  {
    "id": "1101eb81-139c-4d83-a2c8-1f96cb5046b3",
    "data": [
      {
        "text": "I like you",
        "userDefined": false
      }
    ],
    "isTemplate": false,
    "count": 0,
    "updated": 0
  },
  {
    "id": "4faf8d49-5c49-4450-8513-22086c3d17c2",
    "data": [
      {
        "text": "you ",
        "userDefined": false
      },
      {
        "text": "are",
        "meta": "@sys.ignore",
        "userDefined": false
      },
      {
        "text": " special to me",
        "userDefined": false
      }
    ],
    "isTemplate": false,
    "count": 0,
    "updated": 0
  },
  {
    "id": "7550426d-2ce2-4615-a82f-15e097cd9a3d",
    "data": [
      {
        "text": "but I like you",
        "userDefined": false
      }
    ],
    "isTemplate": false,
    "count": 0,
    "updated": 0
  },
  {
    "id": "1946afce-786d-4668-bda7-989ff8fb14d3",
    "data": [
      {
        "text": "you\u0027re ",
        "userDefined": false
      },
      {
        "text": "funny",
        "meta": "@sys.ignore",
        "userDefined": false
      },
      {
        "text": " I like you",
        "userDefined": false
      }
    ],
    "isTemplate": false,
    "count": 0,
    "updated": 0
  },
  {
    "id": "3ab52744-1e61-4824-809d-f6058bfbb2e3",
    "data": [
      {
        "text": "I like u",
        "userDefined": false
      }
    ],
    "isTemplate": false,
    "count": 0,
    "updated": 0
  },
  {
    "id": "fab2c368-81ef-417b-a4df-d4667820ff08",
    "data": [
      {
        "text": "I like you too you\u0027re ",
        "userDefined": false
      },
      {
        "text": "one",
        "meta": "@sys.ignore",
        "userDefined": false
      },
      {
        "text": " ",
        "userDefined": false
      },
      {
        "text": "of",
        "meta": "@sys.ignore",
        "userDefined": false
      },
      {
        "text": " my ",
        "userDefined": false
      },
      {
        "text": "favorite",
        "meta": "@sys.ignore",
        "userDefined": false
      },
      {
        "text": " people to chat with",
        "userDefined": false
      }
    ],
    "isTemplate": false,
    "count": 0,
    "updated": 0
  },
  {
    "id": "ea75112a-6b9e-4fd4-8eda-bf20bcee1157",
    "data": [
      {
        "text": "you ",
        "userDefined": false
      },
      {
        "text": "are",
        "meta": "@sys.ignore",
        "userDefined": false
      },
      {
        "text": " very special to me",
        "userDefined": false
      }
    ],
    "isTemplate": false,
    "count": 0,
    "updated": 0
  },
  {
    "id": "dfd6db50-2229-4713-9a2d-f9f99efedf0d",
    "data": [
      {
        "text": "you are so sweet",
        "userDefined": false
      }
    ],
    "isTemplate": false,
    "count": 0,
    "updated": 0
  },
  {
    "id": "9fc26fdb-e51a-48ca-9fec-96119f22c3d9",
    "data": [
      {
        "text": "you ",
        "userDefined": false
      },
      {
        "text": "are",
        "meta": "@sys.ignore",
        "userDefined": false
      },
      {
        "text": " so special to me",
        "userDefined": false
      }
    ],
    "isTemplate": false,
    "count": 0,
    "updated": 0
  },
  {
    "id": "73f6d624-edc9-4857-b58f-f0eff74c7d83",
    "data": [
      {
        "text": "okay I like you too",
        "userDefined": false
      }
    ],
    "isTemplate": false,
    "count": 0,
    "updated": 0
  },
  {
    "id": "80e51dfb-5eed-4f31-838c-e88d7b36585f",
    "data": [
      {
        "text": "I like you you\u0027re ",
        "userDefined": false
      },
      {
        "text": "cool",
        "meta": "@sys.ignore",
        "userDefined": false
      }
    ],
    "isTemplate": false,
    "count": 0,
    "updated": 0
  },
  {
    "id": "b3e2c9a1-748d-4f4f-95e9-f291ac07bb3a",
    "data": [
      {
        "text": "I like that about you",
        "userDefined": false
      }
    ],
    "isTemplate": false,
    "count": 0,
    "updated": 0
  },
  {
    "id": "b2d89d7f-5ce0-48c3-8861-8fcdb9fbea15",
    "data": [
      {
        "text": "I said I like you",
        "userDefined": false
      }
    ],
    "isTemplate": false,
    "count": 0,
    "updated": 0
  },
  {
    "id": "d386074c-c2c2-46c0-a762-467f6f1eb263",
    "data": [
      {
        "text": "I really really like you",
        "userDefined": false
      }
    ],
    "isTemplate": false,
    "count": 0,
    "updated": 0
  },
  {
    "id": "09320402-8b59-48b7-bd5e-3d1a750c485f",
    "data": [
      {
        "text": "I think I like you",
        "userDefined": false
      }
    ],
    "isTemplate": false,
    "count": 0,
    "updated": 0
  },
  {
    "id": "312a8352-7bb9-463d-a2ff-4450efef30ad",
    "data": [
      {
        "text": "I like you more",
        "userDefined": false
      }
    ],
    "isTemplate": false,
    "count": 0,
    "updated": 0
  },
  {
    "id": "2e0481f7-7781-45ad-8e85-c09f8ff3ced4",
    "data": [
      {
        "text": "I like you as you ",
        "userDefined": false
      },
      {
        "text": "are",
        "meta": "@sys.ignore",
        "userDefined": false
      }
    ],
    "isTemplate": false,
    "count": 0,
    "updated": 0
  },
  {
    "id": "b217ec83-5544-4010-bcca-f6d4962f7c96",
    "data": [
      {
        "text": "I like you a lot",
        "userDefined": false
      }
    ],
    "isTemplate": false,
    "count": 0,
    "updated": 0
  },
  {
    "id": "5eb53333-fa18-46ad-a829-57ff4059967d",
    "data": [
      {
        "text": "but I like you ",
        "userDefined": false
      },
      {
        "text": "just the way you are",
        "meta": "@sys.ignore",
        "userDefined": false
      }
    ],
    "isTemplate": false,
    "count": 0,
    "updated": 0
  },
  {
    "id": "8d22a2f1-16f3-4845-be8f-96e781fb845c",
    "data": [
      {
        "text": "thanks I like you too",
        "userDefined": false
      }
    ],
    "isTemplate": false,
    "count": 0,
    "updated": 0
  },
  {
    "id": "446472b3-79c8-4f45-8837-995b763f6a33",
    "data": [
      {
        "text": "I like you now",
        "userDefined": false
      }
    ],
    "isTemplate": false,
    "count": 0,
    "updated": 0
  },
  {
    "id": "b1736dcc-bae4-4551-b5c8-b3887c536dbf",
    "data": [
      {
        "text": "I really really really really like you",
        "userDefined": false
      }
    ],
    "isTemplate": false,
    "count": 0,
    "updated": 0
  },
  {
    "id": "d3e302a1-65dd-4fc4-8c8b-328d127cc84d",
    "data": [
      {
        "text": "I like you so much",
        "userDefined": false
      }
    ],
    "isTemplate": false,
    "count": 1,
    "updated": 0
  },
  {
    "id": "33fff649-ec2f-4c31-8241-fa40a0174079",
    "data": [
      {
        "text": "hey I like you",
        "userDefined": false
      }
    ],
    "isTemplate": false,
    "count": 0,
    "updated": 0
  },
  {
    "id": "ef580aab-6018-4e5e-9019-6cb9821cf296",
    "data": [
      {
        "text": "I like you so",
        "userDefined": false
      }
    ],
    "isTemplate": false,
    "count": 0,
    "updated": 0
  },
  {
    "id": "5342c69c-570d-4127-bf3a-5f00a22f2fa7",
    "data": [
      {
        "text": "you know I like you",
        "userDefined": false
      }
    ],
    "isTemplate": false,
    "count": 0,
    "updated": 0
  },
  {
    "id": "66f55f5e-43f4-4432-b25a-b0e28536dc92",
    "data": [
      {
        "text": "you\u0027re so special",
        "userDefined": false
      }
    ],
    "isTemplate": false,
    "count": 0,
    "updated": 0
  },
  {
    "id": "bb10742c-585d-463f-9025-13d9965ca8ae",
    "data": [
      {
        "text": "I like you too",
        "userDefined": false
      }
    ],
    "isTemplate": false,
    "count": 0,
    "updated": 0
  },
  {
    "id": "b3ee23ff-c036-4291-b5fb-7f6b9fcf77ac",
    "data": [
      {
        "text": "you ",
        "userDefined": false
      },
      {
        "text": "are",
        "meta": "@sys.ignore",
        "userDefined": false
      },
      {
        "text": " really special",
        "userDefined": false
      }
    ],
    "isTemplate": false,
    "count": 0,
    "updated": 0
  },
  {
    "id": "20cccfa6-de48-4a8c-afe6-f3b7e8c2d946",
    "data": [
      {
        "text": "but I like u",
        "userDefined": false
      }
    ],
    "isTemplate": false,
    "count": 0,
    "updated": 0
  }
]