[
  {
    "id": "e41600be-c539-4053-8190-034e285a978e",
    "data": [
      {
        "text": "be smarter",
        "userDefined": false
      }
    ],
    "isTemplate": false,
    "count": 0,
    "updated": 0
  },
  {
    "id": "5e22025c-2535-44ba-aedc-268cf650aa21",
    "data": [
      {
        "text": "get",
        "meta": "@sys.ignore",
        "userDefined": true
      },
      {
        "text": " qualified",
        "userDefined": false
      }
    ],
    "isTemplate": false,
    "count": 0,
    "updated": 0
  },
  {
    "id": "ed51bf36-b1a8-43bc-b06a-03078d865b34",
    "data": [
      {
        "text": "you should ",
        "userDefined": false
      },
      {
        "text": "study",
        "meta": "@sys.ignore",
        "userDefined": true
      },
      {
        "text": " better",
        "userDefined": false
      }
    ],
    "isTemplate": false,
    "count": 0,
    "updated": 0
  },
  {
    "id": "d9e8b7f1-00fb-4380-bbb5-0f7d8aa54648",
    "data": [
      {
        "text": "be more clever",
        "userDefined": false
      }
    ],
    "isTemplate": false,
    "count": 0,
    "updated": 0
  },
  {
    "id": "00e1cd91-e6c5-4a11-9f56-a2de6c8ef57b",
    "data": [
      {
        "text": "study",
        "userDefined": false
      }
    ],
    "isTemplate": false,
    "count": 0,
    "updated": 0
  },
  {
    "id": "c9e509dd-1a33-42d2-9a60-c86fe147acff",
    "data": [
      {
        "text": "be ",
        "userDefined": false
      },
      {
        "text": "smart",
        "meta": "@sys.ignore",
        "userDefined": true
      }
    ],
    "isTemplate": false,
    "count": 0,
    "updated": 0
  },
  {
    "id": "9f9a2f17-1f72-417a-ac0d-b3c0de7a8f4f",
    "data": [
      {
        "text": "can you get smarter",
        "userDefined": false
      }
    ],
    "isTemplate": false,
    "count": 0,
    "updated": 0
  },
  {
    "id": "42b143df-136f-45d6-899f-087f42bddc2f",
    "data": [
      {
        "text": "be clever",
        "userDefined": false
      }
    ],
    "isTemplate": false,
    "count": 0,
    "updated": 0
  },
  {
    "id": "5e991fe4-a470-4a0b-8187-db4686f1304f",
    "data": [
      {
        "text": "you ",
        "userDefined": false
      },
      {
        "text": "must",
        "meta": "@sys.ignore",
        "userDefined": true
      },
      {
        "text": " learn",
        "userDefined": false
      }
    ],
    "isTemplate": false,
    "count": 0,
    "updated": 0
  }
]