[
  {
    "id": "9d98f319-2bf1-4c0c-b225-a297636f4fba",
    "data": [
      {
        "text": "it",
        "meta": "@sys.ignore",
        "userDefined": false
      },
      {
        "text": " was ",
        "userDefined": false
      },
      {
        "text": "nice",
        "meta": "@sys.ignore",
        "userDefined": false
      },
      {
        "text": " ",
        "userDefined": false
      },
      {
        "text": "meeting",
        "meta": "@sys.ignore",
        "userDefined": false
      },
      {
        "text": " you",
        "userDefined": false
      }
    ],
    "isTemplate": false,
    "count": 0,
    "updated": 0
  },
  {
    "id": "442396e8-0219-4d64-874f-4664bbacf429",
    "data": [
      {
        "text": "nice",
        "meta": "@sys.ignore",
        "userDefined": false
      },
      {
        "text": " to ",
        "userDefined": false
      },
      {
        "text": "meet",
        "meta": "@sys.ignore",
        "userDefined": false
      },
      {
        "text": " you",
        "userDefined": false
      }
    ],
    "isTemplate": false,
    "count": 0,
    "updated": 0
  },
  {
    "id": "3ef26b76-5dc9-4417-9c1d-cbe8228615a8",
    "data": [
      {
        "text": "glad to ",
        "userDefined": false
      },
      {
        "text": "meet",
        "meta": "@sys.ignore",
        "userDefined": false
      },
      {
        "text": " you",
        "userDefined": false
      }
    ],
    "isTemplate": false,
    "count": 0,
    "updated": 0
  },
  {
    "id": "452d26fa-3606-4389-bd53-2d9ce13addf4",
    "data": [
      {
        "text": "it",
        "meta": "@sys.ignore",
        "userDefined": false
      },
      {
        "text": " was very ",
        "userDefined": false
      },
      {
        "text": "nice",
        "meta": "@sys.ignore",
        "userDefined": false
      },
      {
        "text": " to ",
        "userDefined": false
      },
      {
        "text": "meet",
        "meta": "@sys.ignore",
        "userDefined": false
      },
      {
        "text": " you",
        "userDefined": false
      }
    ],
    "isTemplate": false,
    "count": 0,
    "updated": 0
  },
  {
    "id": "aad4a1d9-af0c-4eef-8fd4-a82454fdf21d",
    "data": [
      {
        "text": "pleased to ",
        "userDefined": false
      },
      {
        "text": "meet",
        "meta": "@sys.ignore",
        "userDefined": false
      },
      {
        "text": " you",
        "userDefined": false
      }
    ],
    "isTemplate": false,
    "count": 0,
    "updated": 0
  },
  {
    "id": "11baeb7f-898e-4aef-9562-0e2071d404ef",
    "data": [
      {
        "text": "pleasure to ",
        "userDefined": false
      },
      {
        "text": "meet",
        "meta": "@sys.ignore",
        "userDefined": false
      },
      {
        "text": " you too",
        "userDefined": false
      }
    ],
    "isTemplate": false,
    "count": 0,
    "updated": 0
  },
  {
    "id": "c5aa8d86-104d-4c7d-a320-98fe219ba5f8",
    "data": [
      {
        "text": "good to know ",
        "userDefined": false
      },
      {
        "text": "each",
        "meta": "@sys.ignore",
        "userDefined": false
      },
      {
        "text": " other",
        "userDefined": false
      }
    ],
    "isTemplate": false,
    "count": 0,
    "updated": 0
  },
  {
    "id": "286e39b2-9a2e-4192-bef9-474e3453bb91",
    "data": [
      {
        "text": "nice",
        "meta": "@sys.ignore",
        "userDefined": false
      },
      {
        "text": " to ",
        "userDefined": false
      },
      {
        "text": "meet",
        "meta": "@sys.ignore",
        "userDefined": false
      },
      {
        "text": " you too",
        "userDefined": false
      }
    ],
    "isTemplate": false,
    "count": 0,
    "updated": 0
  },
  {
    "id": "03c0cb48-653e-4e5f-ac63-2988fbce7aa6",
    "data": [
      {
        "text": "pleasure to ",
        "userDefined": false
      },
      {
        "text": "meet",
        "meta": "@sys.ignore",
        "userDefined": false
      },
      {
        "text": " you",
        "userDefined": false
      }
    ],
    "isTemplate": false,
    "count": 0,
    "updated": 0
  },
  {
    "id": "89c9d5b3-853d-4c92-9c8c-1a25f03f0c03",
    "data": [
      {
        "text": "nice",
        "meta": "@sys.ignore",
        "userDefined": false
      },
      {
        "text": " ",
        "userDefined": false
      },
      {
        "text": "meeting",
        "meta": "@sys.ignore",
        "userDefined": false
      },
      {
        "text": " you",
        "userDefined": false
      }
    ],
    "isTemplate": false,
    "count": 0,
    "updated": 0
  }
]