[
  {
    "id": "4ef9cec5-f935-4b28-b36b-579dbdd9906c",
    "data": [
      {
        "text": "when were you born",
        "userDefined": false
      }
    ],
    "isTemplate": false,
    "count": 0,
    "updated": 0
  },
  {
    "id": "da0cb22c-e345-447d-a66e-6ed311df0902",
    "data": [
      {
        "text": "when do you have ",
        "userDefined": false
      },
      {
        "text": "birthday",
        "meta": "@sys.ignore",
        "userDefined": false
      }
    ],
    "isTemplate": false,
    "count": 0,
    "updated": 0
  },
  {
    "id": "7dd9d9fd-1fc3-4374-a155-ea5ce7577dd5",
    "data": [
      {
        "text": "when is your ",
        "userDefined": false
      },
      {
        "text": "birthday",
        "meta": "@sys.ignore",
        "userDefined": false
      }
    ],
    "isTemplate": false,
    "count": 0,
    "updated": 0
  },
  {
    "id": "453132da-e219-423f-a252-24c182852c6c",
    "data": [
      {
        "text": "your",
        "meta": "@sys.ignore",
        "userDefined": false
      },
      {
        "text": " birth date",
        "userDefined": false
      }
    ],
    "isTemplate": false,
    "count": 0,
    "updated": 0
  },
  {
    "id": "ddf7c5f6-2da1-4aad-b932-45f32e4d197c",
    "data": [
      {
        "text": "when do you celebrate your ",
        "userDefined": false
      },
      {
        "text": "birthday",
        "meta": "@sys.ignore",
        "userDefined": false
      }
    ],
    "isTemplate": false,
    "count": 0,
    "updated": 0
  },
  {
    "id": "37417c64-8c95-4218-ad83-62e8bf1430db",
    "data": [
      {
        "text": "date of your ",
        "userDefined": false
      },
      {
        "text": "birthday",
        "meta": "@sys.ignore",
        "userDefined": false
      }
    ],
    "isTemplate": false,
    "count": 0,
    "updated": 0
  },
  {
    "id": "e0ecf96d-c3a0-4a5f-9143-a06d31ad5c8d",
    "data": [
      {
        "text": "what\u0027s your ",
        "userDefined": false
      },
      {
        "text": "birthday",
        "meta": "@sys.ignore",
        "userDefined": false
      }
    ],
    "isTemplate": false,
    "count": 0,
    "updated": 0
  }
]