[
  {
    "id": "0618a12d-ce56-4e2e-be36-b8546300c2e4",
    "data": [
      {
        "text": "when were you born",
        "userDefined": false
      }
    ],
    "isTemplate": false,
    "count": 0,
    "updated": 0
  },
  {
    "id": "5ffa2465-8617-4196-ad7a-5f1d897b12aa",
    "data": [
      {
        "text": "when do you have ",
        "userDefined": false
      },
      {
        "text": "birthday",
        "meta": "@sys.ignore",
        "userDefined": false
      }
    ],
    "isTemplate": false,
    "count": 0,
    "updated": 0
  },
  {
    "id": "04dcd7d3-14e5-4acf-b1f0-3258acf48c5f",
    "data": [
      {
        "text": "when is your ",
        "userDefined": false
      },
      {
        "text": "birthday",
        "meta": "@sys.ignore",
        "userDefined": false
      }
    ],
    "isTemplate": false,
    "count": 0,
    "updated": 0
  },
  {
    "id": "c3e17dfb-9edf-401c-88b9-a9a4b9b21869",
    "data": [
      {
        "text": "your",
        "meta": "@sys.ignore",
        "userDefined": false
      },
      {
        "text": " birth date",
        "userDefined": false
      }
    ],
    "isTemplate": false,
    "count": 0,
    "updated": 0
  },
  {
    "id": "7f8c521a-6015-4881-8e4f-cf93c5d10042",
    "data": [
      {
        "text": "when do you celebrate your ",
        "userDefined": false
      },
      {
        "text": "birthday",
        "meta": "@sys.ignore",
        "userDefined": false
      }
    ],
    "isTemplate": false,
    "count": 0,
    "updated": 0
  },
  {
    "id": "4ea34736-5f85-4fd8-8f76-79e21932a95f",
    "data": [
      {
        "text": "date of your ",
        "userDefined": false
      },
      {
        "text": "birthday",
        "meta": "@sys.ignore",
        "userDefined": false
      }
    ],
    "isTemplate": false,
    "count": 0,
    "updated": 0
  },
  {
    "id": "5a79abb1-12c4-4826-bded-63d7328a516b",
    "data": [
      {
        "text": "what\u0027s your ",
        "userDefined": false
      },
      {
        "text": "birthday",
        "meta": "@sys.ignore",
        "userDefined": false
      }
    ],
    "isTemplate": false,
    "count": 0,
    "updated": 0
  }
]