[
  {
    "id": "15c59d0a-a548-40e2-b647-3d98373c667a",
    "data": [
      {
        "text": "where is your ",
        "userDefined": false
      },
      {
        "text": "work",
        "meta": "@sys.ignore",
        "userDefined": false
      }
    ],
    "isTemplate": false,
    "count": 0,
    "updated": 0
  },
  {
    "id": "f998f6e0-61e9-4cbc-a9e6-bf3143017af6",
    "data": [
      {
        "text": "do you work",
        "userDefined": false
      }
    ],
    "isTemplate": false,
    "count": 0,
    "updated": 0
  },
  {
    "id": "648b7251-f311-42bc-a2a9-9d776b31d01d",
    "data": [
      {
        "text": "where you ",
        "userDefined": false
      },
      {
        "text": "work",
        "meta": "@sys.ignore",
        "userDefined": false
      }
    ],
    "isTemplate": false,
    "count": 0,
    "updated": 0
  },
  {
    "id": "af41fd7f-157d-4f3d-a4bd-aaa4cb2bb220",
    "data": [
      {
        "text": "where do you ",
        "userDefined": false
      },
      {
        "text": "work",
        "meta": "@sys.ignore",
        "userDefined": false
      }
    ],
    "isTemplate": false,
    "count": 0,
    "updated": 0
  },
  {
    "id": "4b6dceae-cce8-4ba5-8c6e-7c7476038125",
    "data": [
      {
        "text": "where is ",
        "userDefined": false
      },
      {
        "text": "your",
        "meta": "@sys.ignore",
        "userDefined": false
      },
      {
        "text": " ",
        "userDefined": false
      },
      {
        "text": "office",
        "meta": "@sys.ignore",
        "userDefined": false
      },
      {
        "text": " located",
        "userDefined": false
      }
    ],
    "isTemplate": false,
    "count": 0,
    "updated": 0
  },
  {
    "id": "b7660e02-1f33-4f2b-80d1-b700b1d78fa6",
    "data": [
      {
        "text": "where is your ",
        "userDefined": false
      },
      {
        "text": "office",
        "meta": "@sys.ignore",
        "userDefined": false
      }
    ],
    "isTemplate": false,
    "count": 0,
    "updated": 0
  },
  {
    "id": "59d5318e-1716-419a-8e78-8ada7e7814b6",
    "data": [
      {
        "text": "where is ",
        "userDefined": false
      },
      {
        "text": "your",
        "meta": "@sys.ignore",
        "userDefined": false
      },
      {
        "text": " ",
        "userDefined": false
      },
      {
        "text": "office",
        "meta": "@sys.ignore",
        "userDefined": false
      },
      {
        "text": " location",
        "userDefined": false
      }
    ],
    "isTemplate": false,
    "count": 0,
    "updated": 0
  },
  {
    "id": "0d64a387-0361-49d9-9c94-660d9c275f0b",
    "data": [
      {
        "text": "your",
        "meta": "@sys.ignore",
        "userDefined": false
      },
      {
        "text": " ",
        "userDefined": false
      },
      {
        "text": "office",
        "meta": "@sys.ignore",
        "userDefined": false
      },
      {
        "text": " location",
        "userDefined": false
      }
    ],
    "isTemplate": false,
    "count": 0,
    "updated": 0
  },
  {
    "id": "fd74e4a3-6e7b-4971-904d-fc6578d3a262",
    "data": [
      {
        "text": "what is your work",
        "userDefined": false
      }
    ],
    "isTemplate": false,
    "count": 0,
    "updated": 0
  }
]