[
  {
    "id": "3d4c48b4-728d-48c8-859a-403695c8d937",
    "data": [
      {
        "text": "can you lock",
        "meta": "@sys.ignore",
        "userDefined": false
      },
      {
        "text": " them ",
        "userDefined": false
      },
      {
        "text": "now",
        "meta": "@sys.ignore",
        "userDefined": false
      }
    ],
    "isTemplate": false,
    "count": 0,
    "updated": 0
  },
  {
    "id": "fbd5a8e8-c312-4885-8ad8-e7174cf8a230",
    "data": [
      {
        "text": "could you lock",
        "meta": "@sys.ignore",
        "userDefined": false
      },
      {
        "text": " them please",
        "userDefined": false
      }
    ],
    "isTemplate": false,
    "count": 1,
    "updated": 0
  },
  {
    "id": "46d787d0-08d8-4efa-b75e-67992352961b",
    "data": [
      {
        "text": "I want ",
        "userDefined": false
      },
      {
        "text": "to",
        "meta": "@sys.ignore",
        "userDefined": false
      },
      {
        "text": " ",
        "userDefined": false
      },
      {
        "text": "lock",
        "meta": "@sys.ignore",
        "userDefined": false
      },
      {
        "text": " them ",
        "userDefined": false
      },
      {
        "text": "now",
        "meta": "@sys.ignore",
        "userDefined": false
      }
    ],
    "isTemplate": false,
    "count": 0,
    "updated": 0
  },
  {
    "id": "32448955-7e5e-4fb4-868c-86ed25c404d3",
    "data": [
      {
        "text": "I need",
        "meta": "@sys.ignore",
        "userDefined": false
      },
      {
        "text": " ",
        "userDefined": false
      },
      {
        "text": "it",
        "meta": "@sys.ignore",
        "userDefined": false
      },
      {
        "text": " ",
        "userDefined": false
      },
      {
        "text": "to",
        "meta": "@sys.ignore",
        "userDefined": false
      },
      {
        "text": " ",
        "userDefined": false
      },
      {
        "text": "be",
        "meta": "@sys.ignore",
        "userDefined": false
      },
      {
        "text": " ",
        "userDefined": false
      },
      {
        "text": "locked",
        "meta": "@sys.ignore",
        "userDefined": false
      }
    ],
    "isTemplate": false,
    "count": 0,
    "updated": 0
  },
  {
    "id": "89bbf4e5-a8ac-4493-bebd-375d268d7768",
    "data": [
      {
        "text": "lock",
        "meta": "@sys.ignore",
        "userDefined": false
      },
      {
        "text": " ",
        "userDefined": false
      },
      {
        "text": "it",
        "meta": "@sys.ignore",
        "userDefined": false
      },
      {
        "text": " ",
        "userDefined": false
      },
      {
        "text": "now",
        "meta": "@sys.ignore",
        "userDefined": false
      }
    ],
    "isTemplate": false,
    "count": 1,
    "updated": 0
  },
  {
    "id": "e7f2abd2-c4a7-4157-90db-57d532bfd69f",
    "data": [
      {
        "text": "I ",
        "userDefined": false
      },
      {
        "text": "need to lock",
        "meta": "@sys.ignore",
        "userDefined": false
      },
      {
        "text": " them",
        "userDefined": false
      }
    ],
    "isTemplate": false,
    "count": 0,
    "updated": 0
  },
  {
    "id": "af3adec0-535c-44cb-87db-38596cfab383",
    "data": [
      {
        "text": "lock it",
        "userDefined": false
      }
    ],
    "isTemplate": false,
    "count": 0,
    "updated": 0
  },
  {
    "id": "240bd6a8-0bd9-4692-9350-b3379c16ea8b",
    "data": [
      {
        "text": "lock them",
        "userDefined": false
      }
    ],
    "isTemplate": false,
    "count": 0,
    "updated": 0
  },
  {
    "id": "772725be-8734-4cb3-b988-ff35b5d71305",
    "data": [
      {
        "text": "now lock",
        "meta": "@sys.ignore",
        "userDefined": false
      }
    ],
    "isTemplate": false,
    "count": 0,
    "updated": 0
  },
  {
    "id": "4dbab1dd-d9d7-4027-b7f0-866077705d94",
    "data": [
      {
        "text": "they should ",
        "userDefined": false
      },
      {
        "text": "be",
        "meta": "@sys.ignore",
        "userDefined": false
      },
      {
        "text": " ",
        "userDefined": false
      },
      {
        "text": "locked",
        "meta": "@sys.ignore",
        "userDefined": false
      }
    ],
    "isTemplate": false,
    "count": 0,
    "updated": 0
  },
  {
    "id": "46ae83d7-b854-423a-8838-b4a1eba43242",
    "data": [
      {
        "text": "lock",
        "meta": "@sys.ignore",
        "userDefined": false
      },
      {
        "text": " them ",
        "userDefined": false
      },
      {
        "text": "now",
        "meta": "@sys.ignore",
        "userDefined": false
      }
    ],
    "isTemplate": false,
    "count": 0,
    "updated": 0
  },
  {
    "id": "2fa3b23e-c647-45c3-9bc8-170324b63390",
    "data": [
      {
        "text": "lock",
        "meta": "@sys.ignore",
        "userDefined": false
      }
    ],
    "isTemplate": false,
    "count": 0,
    "updated": 0
  }
]