{
  "id": "85fd5bb0-b955-4cfd-9dae-a7bb2add9217",
  "name": "smarthome.device.volume.unmute",
  "auto": true,
  "contexts": [],
  "responses": [
    {
      "resetContexts": false,
      "action": "smarthome.device.volume.unmute",
      "affectedContexts": [
        {
          "name": "device-volume",
          "parameters": {},
          "lifespan": 5
        }
      ],
      "parameters": [
        {
          "id": "40310b35-5fa7-41dd-8d15-9eeae24d0c46",
          "required": false,
          "dataType": "@device-volume",
          "name": "device",
          "value": "$device",
          "promptMessages": [],
          "noMatchPromptMessages": [],
          "noInputPromptMessages": [],
          "outputDialogContexts": [],
          "isList": false
        },
        {
          "id": "1999a1d7-16ff-403e-b260-8f40d9c67798",
          "required": false,
          "dataType": "@room",
          "name": "room",
          "value": "$room",
          "promptMessages": [],
          "noMatchPromptMessages": [],
          "noInputPromptMessages": [],
          "outputDialogContexts": [],
          "isList": false
        }
      ],
      "messages": [
        {
          "type": 0,
          "lang": "en",
          "condition": "",
          "speech": []
        }
      ],
      "defaultResponsePlatforms": {},
      "speech": []
    }
  ],
  "priority": 500000,
  "webhookUsed": false,
  "webhookForSlotFilling": false,
  "fallbackIntent": false,
  "events": [],
  "conditionalResponses": [],
  "condition": "",
  "conditionalFollowupEvents": []
}