[
  {
    "id": "de00d141-a023-4400-b18c-b1b269d8a555",
    "data": [
      {
        "text": "still not ",
        "userDefined": false
      },
      {
        "text": "hot",
        "meta": "@sys.ignore",
        "userDefined": false
      },
      {
        "text": " enough",
        "userDefined": false
      }
    ],
    "isTemplate": false,
    "count": 0,
    "updated": 0
  },
  {
    "id": "bbea9c18-3cab-46d4-bb35-a4ae23305126",
    "data": [
      {
        "text": "still I\u0027m ",
        "userDefined": false
      },
      {
        "text": "cold",
        "meta": "@sys.ignore",
        "userDefined": false
      }
    ],
    "isTemplate": false,
    "count": 0,
    "updated": 0
  },
  {
    "id": "1cd04343-a276-4abe-be4b-97fe132c6aab",
    "data": [
      {
        "text": "still not ",
        "userDefined": false
      },
      {
        "text": "hot",
        "meta": "@sys.ignore",
        "userDefined": false
      }
    ],
    "isTemplate": false,
    "count": 0,
    "updated": 0
  },
  {
    "id": "417c8b60-5242-484b-acec-7beee08b9094",
    "data": [
      {
        "text": "still not ",
        "userDefined": false
      },
      {
        "text": "warm",
        "meta": "@sys.ignore",
        "userDefined": false
      }
    ],
    "isTemplate": false,
    "count": 0,
    "updated": 0
  },
  {
    "id": "ffcad1d8-1e23-44ea-8de2-1e03b129d11c",
    "data": [
      {
        "text": "still ",
        "userDefined": false
      },
      {
        "text": "cold",
        "meta": "@sys.ignore",
        "userDefined": false
      }
    ],
    "isTemplate": false,
    "count": 0,
    "updated": 0
  },
  {
    "id": "698db1a4-805d-4dff-8a43-3f254137cd61",
    "data": [
      {
        "text": "warmer",
        "userDefined": false
      }
    ],
    "isTemplate": false,
    "count": 0,
    "updated": 0
  },
  {
    "id": "a9b0e8ee-0290-4799-87b7-5c09de571504",
    "data": [
      {
        "text": "hotter",
        "userDefined": false
      }
    ],
    "isTemplate": false,
    "count": 0,
    "updated": 0
  },
  {
    "id": "30f6d67d-7999-4aaa-b940-331c7893e1ad",
    "data": [
      {
        "text": "still not ",
        "userDefined": false
      },
      {
        "text": "warm enough",
        "meta": "@sys.ignore",
        "userDefined": false
      }
    ],
    "isTemplate": false,
    "count": 0,
    "updated": 0
  },
  {
    "id": "58121d8c-ef89-4284-bbe6-dcd01fe346d2",
    "data": [
      {
        "text": "too ",
        "userDefined": false
      },
      {
        "text": "cold",
        "meta": "@sys.ignore",
        "userDefined": false
      }
    ],
    "isTemplate": false,
    "count": 0,
    "updated": 0
  },
  {
    "id": "6bbef333-2c22-48e3-a965-8c10cc80b1a1",
    "data": [
      {
        "text": "make ",
        "userDefined": false
      },
      {
        "text": "it",
        "meta": "@sys.ignore",
        "userDefined": true
      },
      {
        "text": " warmer",
        "userDefined": false
      }
    ],
    "isTemplate": false,
    "count": 0,
    "updated": 0
  },
  {
    "id": "b12ebf89-051e-40e5-a4f8-07f563c61bbf",
    "data": [
      {
        "text": "not warm enough",
        "userDefined": false
      }
    ],
    "isTemplate": false,
    "count": 0,
    "updated": 0
  },
  {
    "id": "3b693571-371c-498e-af30-43b812080574",
    "data": [
      {
        "text": "make ",
        "userDefined": false
      },
      {
        "text": "it",
        "meta": "@sys.ignore",
        "userDefined": true
      },
      {
        "text": " hotter",
        "userDefined": false
      }
    ],
    "isTemplate": false,
    "count": 0,
    "updated": 0
  }
]