{
  "id": "e7a8532e-b007-4faa-b328-2b965e5c2aec",
  "name": "smarthome.lights.saturation.set",
  "auto": true,
  "contexts": [],
  "responses": [
    {
      "resetContexts": false,
      "action": "smarthome.lights.saturation.set",
      "affectedContexts": [],
      "parameters": [
        {
          "id": "ef785901-a39c-4a68-a6d2-1ab50755ee40",
          "required": false,
          "dataType": "@sys.number",
          "name": "final-value",
          "value": "$final-value",
          "promptMessages": [],
          "noMatchPromptMessages": [],
          "noInputPromptMessages": [],
          "outputDialogContexts": [],
          "isList": false
        },
        {
          "id": "ad7d5dbb-8825-48d3-82bf-9772e5795c12",
          "required": false,
          "dataType": "@lights",
          "name": "device",
          "value": "$device",
          "promptMessages": [],
          "noMatchPromptMessages": [],
          "noInputPromptMessages": [],
          "outputDialogContexts": [],
          "isList": false
        },
        {
          "id": "ec601333-cf11-491b-a011-c26a200d0d4d",
          "required": false,
          "dataType": "@color",
          "name": "color",
          "value": "$color",
          "promptMessages": [],
          "noMatchPromptMessages": [],
          "noInputPromptMessages": [],
          "outputDialogContexts": [],
          "isList": false
        },
        {
          "id": "a4931c31-0aa9-4aed-9243-c52048eae88e",
          "required": false,
          "dataType": "@room",
          "name": "room",
          "value": "$room",
          "promptMessages": [],
          "noMatchPromptMessages": [],
          "noInputPromptMessages": [],
          "outputDialogContexts": [],
          "isList": false
        },
        {
          "id": "11406f2a-ebd5-44dc-a0af-1f3a36df6b01",
          "required": false,
          "dataType": "@all",
          "name": "all",
          "value": "$all",
          "promptMessages": [],
          "noMatchPromptMessages": [],
          "noInputPromptMessages": [],
          "outputDialogContexts": [],
          "isList": false
        }
      ],
      "messages": [
        {
          "type": 0,
          "lang": "en",
          "condition": "",
          "speech": []
        }
      ],
      "defaultResponsePlatforms": {},
      "speech": []
    }
  ],
  "priority": 500000,
  "webhookUsed": false,
  "webhookForSlotFilling": false,
  "fallbackIntent": false,
  "events": [],
  "conditionalResponses": [],
  "condition": "",
  "conditionalFollowupEvents": []
}