{
  "id": "f8dc85d4-da44-4580-be8d-9aa9c4f937ce",
  "name": "smarthome.device.brightness.schedule.down",
  "auto": true,
  "contexts": [],
  "responses": [
    {
      "resetContexts": false,
      "action": "smarthome.device.brightness.schedule.down",
      "affectedContexts": [
        {
          "name": "schedule",
          "parameters": {},
          "lifespan": 5
        }
      ],
      "parameters": [
        {
          "id": "bf99a3b8-c3d8-41b4-bc1a-d90ff9f9bf49",
          "required": false,
          "dataType": "@device",
          "name": "device",
          "value": "$device",
          "promptMessages": [],
          "noMatchPromptMessages": [],
          "noInputPromptMessages": [],
          "outputDialogContexts": [],
          "isList": false
        },
        {
          "id": "2a9f277e-9690-4c0d-bb56-c9ca2af7f310",
          "required": false,
          "dataType": "@sys.date-time",
          "name": "date-time",
          "value": "$date-time",
          "promptMessages": [],
          "noMatchPromptMessages": [],
          "noInputPromptMessages": [],
          "outputDialogContexts": [],
          "isList": false
        },
        {
          "id": "4f91005a-9e56-4b3d-b772-b13ccff51dec",
          "required": false,
          "dataType": "@condition",
          "name": "condition",
          "value": "$condition",
          "promptMessages": [],
          "noMatchPromptMessages": [],
          "noInputPromptMessages": [],
          "outputDialogContexts": [],
          "isList": false
        },
        {
          "id": "28f7214f-6f1e-4bf1-b19c-53500d9dee36",
          "required": false,
          "dataType": "@recurrence",
          "name": "recurrence",
          "value": "$recurrence",
          "promptMessages": [],
          "noMatchPromptMessages": [],
          "noInputPromptMessages": [],
          "outputDialogContexts": [],
          "isList": false
        },
        {
          "id": "1883534c-712c-4628-a5ac-68f86ec4749b",
          "required": false,
          "dataType": "@all",
          "name": "all",
          "value": "$all",
          "promptMessages": [],
          "noMatchPromptMessages": [],
          "noInputPromptMessages": [],
          "outputDialogContexts": [],
          "isList": false
        },
        {
          "id": "3f376c71-a8b1-4587-971f-76d839eeb0e5",
          "required": false,
          "dataType": "@room",
          "name": "room",
          "value": "$room",
          "promptMessages": [],
          "noMatchPromptMessages": [],
          "noInputPromptMessages": [],
          "outputDialogContexts": [],
          "isList": false
        }
      ],
      "messages": [
        {
          "type": 0,
          "lang": "en",
          "condition": "",
          "speech": []
        }
      ],
      "defaultResponsePlatforms": {},
      "speech": []
    }
  ],
  "priority": 500000,
  "webhookUsed": false,
  "webhookForSlotFilling": false,
  "fallbackIntent": false,
  "events": [],
  "conditionalResponses": [],
  "condition": "",
  "conditionalFollowupEvents": []
}