{
  "id": "30459aab-cbe9-4881-abf6-f717947d6a8f",
  "name": "smarthome.heating.switch.schedule.off",
  "auto": true,
  "contexts": [],
  "responses": [
    {
      "resetContexts": false,
      "action": "smarthome.heating.switch.schedule.off",
      "affectedContexts": [
        {
          "name": "schedule",
          "parameters": {},
          "lifespan": 5
        }
      ],
      "parameters": [
        {
          "id": "14c0003c-06d2-45e4-a923-e700acfcfac3",
          "required": false,
          "dataType": "@condition",
          "name": "condition",
          "value": "$condition",
          "promptMessages": [],
          "noMatchPromptMessages": [],
          "noInputPromptMessages": [],
          "outputDialogContexts": [],
          "isList": false
        },
        {
          "id": "c6ca3f91-5161-4d41-bf64-d3d5ed3d3cd2",
          "required": false,
          "dataType": "@recurrence",
          "name": "recurrence",
          "value": "$recurrence",
          "promptMessages": [],
          "noMatchPromptMessages": [],
          "noInputPromptMessages": [],
          "outputDialogContexts": [],
          "isList": false
        },
        {
          "id": "2b68b127-e376-403b-b653-b2b137157563",
          "required": false,
          "dataType": "@sys.date-time",
          "name": "date-time",
          "value": "$date-time",
          "promptMessages": [],
          "noMatchPromptMessages": [],
          "noInputPromptMessages": [],
          "outputDialogContexts": [],
          "isList": false
        },
        {
          "id": "b1e19758-17db-4aa3-8995-867e3d1d41b8",
          "required": false,
          "dataType": "@all",
          "name": "all",
          "value": "$all",
          "promptMessages": [],
          "noMatchPromptMessages": [],
          "noInputPromptMessages": [],
          "outputDialogContexts": [],
          "isList": false
        },
        {
          "id": "e16aa81a-784e-4a4c-8f78-d12311f53155",
          "required": false,
          "dataType": "@room",
          "name": "room",
          "value": "$room",
          "promptMessages": [],
          "noMatchPromptMessages": [],
          "noInputPromptMessages": [],
          "outputDialogContexts": [],
          "isList": false
        }
      ],
      "messages": [
        {
          "type": 0,
          "lang": "en",
          "condition": "",
          "speech": []
        }
      ],
      "defaultResponsePlatforms": {},
      "speech": []
    }
  ],
  "priority": 500000,
  "webhookUsed": false,
  "webhookForSlotFilling": false,
  "fallbackIntent": false,
  "events": [],
  "conditionalResponses": [],
  "condition": "",
  "conditionalFollowupEvents": []
}