{
  "id": "f1e021a3-20d1-482e-b324-3f766e78ea4d",
  "name": "smarthome.device.volume.check - context:volume-check - comment:device",
  "auto": true,
  "contexts": [
    "volume-check"
  ],
  "responses": [
    {
      "resetContexts": false,
      "action": "smarthome.device.volume.check",
      "affectedContexts": [],
      "parameters": [
        {
          "id": "0c5b3dfa-6e0a-4efd-8fe1-6a837baccaa8",
          "required": false,
          "dataType": "@device-volume",
          "name": "device",
          "value": "$device",
          "promptMessages": [],
          "noMatchPromptMessages": [],
          "noInputPromptMessages": [],
          "outputDialogContexts": [],
          "isList": false
        }
      ],
      "messages": [
        {
          "type": 0,
          "lang": "en",
          "condition": "",
          "speech": []
        }
      ],
      "defaultResponsePlatforms": {},
      "speech": []
    }
  ],
  "priority": 500000,
  "webhookUsed": false,
  "webhookForSlotFilling": false,
  "fallbackIntent": false,
  "events": [],
  "conditionalResponses": [],
  "condition": "",
  "conditionalFollowupEvents": []
}