[
  {
    "id": "f720ba97-b2b0-4445-ae86-e2947aacbb07",
    "data": [
      {
        "text": "not bright enough",
        "userDefined": false
      }
    ],
    "isTemplate": false,
    "count": 0,
    "updated": 0
  },
  {
    "id": "a8f8efae-16b0-41c7-b7ee-4306ab38dc10",
    "data": [
      {
        "text": "still dark",
        "userDefined": false
      }
    ],
    "isTemplate": false,
    "count": 0,
    "updated": 0
  },
  {
    "id": "db402d0e-bdea-4cce-b6ef-277b8b9b05f5",
    "data": [
      {
        "text": "it is too dark here",
        "userDefined": false
      }
    ],
    "isTemplate": false,
    "count": 0,
    "updated": 0
  },
  {
    "id": "c307a014-2f1e-449d-a707-60e6d0562d4b",
    "data": [
      {
        "text": "still too dark",
        "userDefined": false
      }
    ],
    "isTemplate": false,
    "count": 0,
    "updated": 0
  },
  {
    "id": "256f3116-f42a-49c4-929d-4e9b4fb4fa02",
    "data": [
      {
        "text": "a little more",
        "userDefined": false
      }
    ],
    "isTemplate": false,
    "count": 0,
    "updated": 0
  },
  {
    "id": "0ece8da5-327a-4010-9a85-2a53d45e4cec",
    "data": [
      {
        "text": "brighten them",
        "userDefined": false
      }
    ],
    "isTemplate": false,
    "count": 0,
    "updated": 0
  },
  {
    "id": "b337e1f5-5ebd-4487-a0c7-b520d78394b8",
    "data": [
      {
        "text": "brighter",
        "userDefined": false
      }
    ],
    "isTemplate": false,
    "count": 0,
    "updated": 0
  },
  {
    "id": "0ce80b25-a45d-4bab-a09d-6d3369315aae",
    "data": [
      {
        "text": "it\u0027s too dark in here",
        "userDefined": false
      }
    ],
    "isTemplate": false,
    "count": 0,
    "updated": 0
  },
  {
    "id": "6935d3f8-939f-4cb3-8d20-76810ac2f7af",
    "data": [
      {
        "text": "too dark",
        "userDefined": false
      }
    ],
    "isTemplate": false,
    "count": 0,
    "updated": 0
  },
  {
    "id": "efb1a694-f0bc-4eab-912d-1083d1b09bb4",
    "data": [
      {
        "text": "make them brighter",
        "userDefined": false
      }
    ],
    "isTemplate": false,
    "count": 0,
    "updated": 0
  },
  {
    "id": "3dec2ba8-dcf7-46c9-a1b0-d15340c16a85",
    "data": [
      {
        "text": "brighten it",
        "userDefined": false
      }
    ],
    "isTemplate": false,
    "count": 0,
    "updated": 0
  },
  {
    "id": "f2ecccb6-594f-411c-887d-9d058aebd2bb",
    "data": [
      {
        "text": "it\u0027s too dark",
        "userDefined": false
      }
    ],
    "isTemplate": false,
    "count": 0,
    "updated": 0
  },
  {
    "id": "a8487f6f-45ca-4782-8855-ebd21b71ade7",
    "data": [
      {
        "text": "make brighter",
        "userDefined": false
      }
    ],
    "isTemplate": false,
    "count": 0,
    "updated": 0
  },
  {
    "id": "1d62faaa-5f70-474b-ac36-c470da0151a4",
    "data": [
      {
        "text": "it is dark",
        "userDefined": false
      }
    ],
    "isTemplate": false,
    "count": 0,
    "updated": 0
  },
  {
    "id": "e4ebcc9c-85fb-4507-930e-f511261d7220",
    "data": [
      {
        "text": "it\u0027s dark here",
        "userDefined": false
      }
    ],
    "isTemplate": false,
    "count": 0,
    "updated": 0
  }
]