{
  "id": "a9b713e2-e1fd-41f3-add9-32911df9af90",
  "name": "smarthome.heating.switch.schedule.on",
  "auto": true,
  "contexts": [],
  "responses": [
    {
      "resetContexts": false,
      "action": "smarthome.heating.switch.schedule.on",
      "affectedContexts": [],
      "parameters": [
        {
          "id": "6fe0f6bc-0c4b-4b53-88e7-7ee39f2332ee",
          "required": false,
          "dataType": "@recurrence",
          "name": "recurrence",
          "value": "$recurrence",
          "promptMessages": [],
          "noMatchPromptMessages": [],
          "noInputPromptMessages": [],
          "outputDialogContexts": [],
          "isList": false
        },
        {
          "id": "4f9743b2-a8ca-495b-972f-96706af6d8c8",
          "required": false,
          "dataType": "@sys.date-time",
          "name": "date-time",
          "value": "$date-time",
          "promptMessages": [],
          "noMatchPromptMessages": [],
          "noInputPromptMessages": [],
          "outputDialogContexts": [],
          "isList": false
        },
        {
          "id": "6395bad5-4b95-45d2-90b3-99339f42d923",
          "required": false,
          "dataType": "@room",
          "name": "room",
          "value": "$room",
          "promptMessages": [],
          "noMatchPromptMessages": [],
          "noInputPromptMessages": [],
          "outputDialogContexts": [],
          "isList": false
        },
        {
          "id": "9cf5fb5e-07ff-4c5e-96fc-3eb74acb6d41",
          "required": false,
          "dataType": "@condition",
          "name": "condition",
          "value": "$condition",
          "promptMessages": [],
          "noMatchPromptMessages": [],
          "noInputPromptMessages": [],
          "outputDialogContexts": [],
          "isList": false
        },
        {
          "id": "78f79e3c-aa8d-4a2e-afbd-dc8c58841a22",
          "required": false,
          "dataType": "@all",
          "name": "all",
          "value": "$all",
          "promptMessages": [],
          "noMatchPromptMessages": [],
          "noInputPromptMessages": [],
          "outputDialogContexts": [],
          "isList": false
        }
      ],
      "messages": [
        {
          "type": 0,
          "lang": "en",
          "condition": "",
          "speech": []
        }
      ],
      "defaultResponsePlatforms": {},
      "speech": []
    }
  ],
  "priority": 500000,
  "webhookUsed": false,
  "webhookForSlotFilling": false,
  "fallbackIntent": false,
  "events": [],
  "conditionalResponses": [],
  "condition": "",
  "conditionalFollowupEvents": []
}