[
  {
    "id": "e2f87afb-1cb6-4a4f-9a15-5ab5bdb97234",
    "data": [
      {
        "text": "it is bright",
        "userDefined": false
      }
    ],
    "isTemplate": false,
    "count": 0,
    "updated": 0
  },
  {
    "id": "14e3d5cb-8d4e-42af-8729-67aa3f573449",
    "data": [
      {
        "text": "too ",
        "userDefined": false
      },
      {
        "text": "bright",
        "meta": "@sys.ignore",
        "userDefined": false
      },
      {
        "text": " for ",
        "userDefined": false
      },
      {
        "text": "me",
        "meta": "@sys.ignore",
        "userDefined": false
      }
    ],
    "isTemplate": false,
    "count": 1,
    "updated": 0
  },
  {
    "id": "655aa0b1-01f7-41db-9b58-704cd80a87c1",
    "data": [
      {
        "text": "it\u0027s really bright in here",
        "userDefined": false
      }
    ],
    "isTemplate": false,
    "count": 0,
    "updated": 0
  },
  {
    "id": "c4e1d48a-aff7-44fe-b4e0-526fefc023d0",
    "data": [
      {
        "text": "too ",
        "userDefined": false
      },
      {
        "text": "bright",
        "meta": "@sys.ignore",
        "userDefined": false
      },
      {
        "text": " ",
        "userDefined": false
      },
      {
        "text": "here",
        "meta": "@sys.ignore",
        "userDefined": false
      }
    ],
    "isTemplate": false,
    "count": 0,
    "updated": 0
  },
  {
    "id": "a34182b0-a5be-4f85-81a0-2a6de2c5e8a8",
    "data": [
      {
        "text": "it is bright here",
        "userDefined": false
      }
    ],
    "isTemplate": false,
    "count": 0,
    "updated": 0
  },
  {
    "id": "323c14cd-56dc-4cf2-9f70-89e32012c7a5",
    "data": [
      {
        "text": "less",
        "userDefined": false
      }
    ],
    "isTemplate": false,
    "count": 0,
    "updated": 0
  },
  {
    "id": "72964530-fc27-4104-8000-f1d400e90ba9",
    "data": [
      {
        "text": "it",
        "meta": "@sys.ignore",
        "userDefined": false
      },
      {
        "text": "\u0027s ",
        "userDefined": false
      },
      {
        "text": "really",
        "meta": "@sys.ignore",
        "userDefined": false
      },
      {
        "text": " ",
        "userDefined": false
      },
      {
        "text": "bright",
        "meta": "@sys.ignore",
        "userDefined": false
      }
    ],
    "isTemplate": false,
    "count": 0,
    "updated": 0
  },
  {
    "id": "9597cab9-ed14-4a9c-8c01-8a6e88b6b9da",
    "data": [
      {
        "text": "still bright",
        "userDefined": false
      }
    ],
    "isTemplate": false,
    "count": 0,
    "updated": 0
  },
  {
    "id": "c06bc87a-e7cf-4a45-97b5-735711634599",
    "data": [
      {
        "text": "still too bright",
        "userDefined": false
      }
    ],
    "isTemplate": false,
    "count": 0,
    "updated": 0
  },
  {
    "id": "91c2284a-32f6-47e9-8e95-73430b68ca1f",
    "data": [
      {
        "text": "too bright",
        "userDefined": false
      }
    ],
    "isTemplate": false,
    "count": 1,
    "updated": 0
  },
  {
    "id": "bb2202d9-81d3-4082-a104-703a3e3d4ba7",
    "data": [
      {
        "text": "it\u0027s too bright",
        "userDefined": false
      }
    ],
    "isTemplate": false,
    "count": 0,
    "updated": 0
  },
  {
    "id": "7ab344ec-1f3f-4fa1-b512-a378958565cf",
    "data": [
      {
        "text": "not dim enough",
        "userDefined": false
      }
    ],
    "isTemplate": false,
    "count": 0,
    "updated": 0
  },
  {
    "id": "eaffadd2-4f17-4f44-8343-aea657a8c46e",
    "data": [
      {
        "text": "a little less",
        "userDefined": false
      }
    ],
    "isTemplate": false,
    "count": 0,
    "updated": 0
  }
]